{
    "POLYGONS":[
        {"ID":"e9fd00","TYPE":"D","VERTICES":["e9fe50","e9fed0","e9ff50","e9ffd0"]},
        {"ID":"ea00a0","TYPE":"K","VERTICES":["ea0370","ea02f0","e9fed0","e9fe50"]},
        {"ID":"ea04b0","TYPE":"D","VERTICES":["ea02a0","ea0220","e9ff50","e9fed0"]},
        {"ID":"ea07b0","TYPE":"D","VERTICES":["ea06c0","e9ffd0","e9ff50","ea0850"]},
        {"ID":"ea0ab0","TYPE":"K","VERTICES":["ea0370","e9fe50","e9ffd0","ea05b0"]},
        {"ID":"ea0d90","TYPE":"D","VERTICES":["ea0b80","ea0b20","ea02f0","ea0370"]},
        {"ID":"ea0dd0","TYPE":"K","VERTICES":["ea10a0","ea02a0","e9fed0","ea02f0"]},
        {"ID":"ea0f90","TYPE":"K","VERTICES":["ea10a0","ea0ec0","ea0220","ea02a0"]},
        {"ID":"ea1250","TYPE":"D","VERTICES":["ea0e90","ea0f30","e9ff50","ea0220"]},
        {"ID":"ea1670","TYPE":"K","VERTICES":["ea1740","ea05b0","e9ffd0","ea06c0"]},
        {"ID":"ea1ad0","TYPE":"D","VERTICES":["ea16e0","ea0850","e9ff50","ea0f30"]},
        {"ID":"ea1df0","TYPE":"K","VERTICES":["ea1740","ea06c0","ea0850","ea1b10"]},
        {"ID":"ea2070","TYPE":"D","VERTICES":["ea1410","ea0370","ea05b0","ea20b0"]},
        {"ID":"ea1ef0","TYPE":"K","VERTICES":["ea2190","ea1fc0","ea0b20","ea0b80"]},
        {"ID":"ea1ff0","TYPE":"D","VERTICES":["ea13c0","ea2210","ea02f0","ea0b20"]},
        {"ID":"ea2840","TYPE":"K","VERTICES":["ea2190","ea0b80","ea0370","ea1410"]},
        {"ID":"ea2b00","TYPE":"D","VERTICES":["ea29d0","ea10a0","ea02f0","ea2210"]},
        {"ID":"ea2360","TYPE":"D","VERTICES":["ea2910","ea24d0","ea0ec0","ea10a0"]},
        {"ID":"ea2c80","TYPE":"K","VERTICES":["ea2d50","ea0e90","ea0220","ea0ec0"]},
        {"ID":"ea3260","TYPE":"K","VERTICES":["ea2d50","ea2a50","ea0f30","ea0e90"]},
        {"ID":"ea3580","TYPE":"D","VERTICES":["ea32a0","ea32d0","ea05b0","ea1740"]},
        {"ID":"ea3220","TYPE":"K","VERTICES":["ea3390","ea1b10","ea0850","ea16e0"]},
        {"ID":"ea2d10","TYPE":"K","VERTICES":["ea3390","ea16e0","ea0f30","ea2a50"]},
        {"ID":"ea2e80","TYPE":"D","VERTICES":["ea3840","ea1740","ea1b10","ea3870"]},
        {"ID":"ea3b40","TYPE":"D","VERTICES":["ea3410","ea20b0","ea05b0","ea32d0"]},
        {"ID":"ea4200","TYPE":"K","VERTICES":["ea2190","ea1410","ea20b0","ea3bb0"]},
        {"ID":"ea4590","TYPE":"K","VERTICES":["ea4750","ea2910","ea10a0","ea29d0"]},
        {"ID":"ea3d40","TYPE":"K","VERTICES":["ea4750","ea29d0","ea2210","ea4440"]},
        {"ID":"ea51b0","TYPE":"K","VERTICES":["ea4750","ea4700","ea24d0","ea2910"]},
        {"ID":"ea4a10","TYPE":"D","VERTICES":["ea48d0","ea4b00","ea0ec0","ea24d0"]},
        {"ID":"ea5250","TYPE":"D","VERTICES":["ea5180","ea2d50","ea0ec0","ea4b00"]},
        {"ID":"ea5830","TYPE":"D","VERTICES":["ea52f0","ea5320","ea2a50","ea2d50"]},
        {"ID":"ea5290","TYPE":"K","VERTICES":["ea55d0","ea5550","ea32d0","ea32a0"]},
        {"ID":"ea5900","TYPE":"K","VERTICES":["ea55d0","ea32a0","ea1740","ea3840"]},
        {"ID":"ea6080","TYPE":"K","VERTICES":["ea3390","ea5410","ea59a0","ea1b10"]},
        {"ID":"ea5940","TYPE":"K","VERTICES":["ea3390","ea2a50","ea5500","ea5af0"]},
        {"ID":"ea60f0","TYPE":"K","VERTICES":["ea3870","ea1b10","ea59a0","ea9060"]},
        {"ID":"ea6850","TYPE":"K","VERTICES":["ea55d0","ea3840","ea3870","ea5c80"]},
        {"ID":"ea7aa0","TYPE":"K","VERTICES":["ea8a60","ea52f0","ea2d50","ea5180"]},
        {"ID":"ea7dc0","TYPE":"K","VERTICES":["ea8a60","ea5180","ea4b00","ea9180"]},
        {"ID":"ea8040","TYPE":"K","VERTICES":["ea8a60","ea7d90","ea5320","ea52f0"]},
        {"ID":"ea82a0","TYPE":"K","VERTICES":["ea5320","eaa100","ea5500","ea2a50"]},
        {"ID":"ea8340","TYPE":"K","VERTICES":["ea3390","ea5af0","ea8480","ea5410"]}
    ],
    "POLYGON_TYPES":{
        "D":{"SIDES":[2,0,1,3]},
        "K":{"SIDES":[0,2,3,1]}
    },
    "SIDE_TYPES":{
        "0":"LONG SIDE - PHI + 1",
        "1":"LONG SIDE - 1 + PHI",
        "2":"SHORT SIDE - PHI + 1/PHI",
        "3":"SHORT SIDE - 1/PHI + PHI"
    },
    "VERTICES":{
        "e9fe50":{"X":0.500000,"Y":-1.538842,"ANG":360,"POLYGONS":["e9fd00","ea00a0","ea0ab0"]},
        "e9fed0":{"X":2.118034,"Y":-1.538842,"ANG":360,"POLYGONS":["e9fd00","ea00a0","ea04b0","ea0dd0"]},
        "e9ff50":{"X":0.000000,"Y":0.000000,"ANG":360,"POLYGONS":["e9fd00","ea04b0","ea07b0","ea1250","ea1ad0"]},
        "e9ffd0":{"X":-0.809017,"Y":-2.489898,"ANG":360,"POLYGONS":["e9fd00","ea07b0","ea0ab0","ea1670"]},
        "ea0370":{"X":1.309017,"Y":-4.028740,"ANG":360,"POLYGONS":["ea00a0","ea0ab0","ea0d90","ea2070","ea2840"]},
        "ea02f0":{"X":3.427051,"Y":-2.489898,"ANG":360,"POLYGONS":["ea00a0","ea0d90","ea0dd0","ea1ff0","ea2b00"]},
        "ea02a0":{"X":1.618034,"Y":0.000000,"ANG":360,"POLYGONS":["ea04b0","ea0dd0","ea0f90"]},
        "ea0220":{"X":2.118034,"Y":1.538842,"ANG":360,"POLYGONS":["ea04b0","ea0f90","ea1250","ea2c80"]},
        "ea06c0":{"X":-1.309017,"Y":-0.951057,"ANG":360,"POLYGONS":["ea07b0","ea1670","ea1df0"]},
        "ea0850":{"X":-2.618034,"Y":0.000000,"ANG":360,"POLYGONS":["ea07b0","ea1ad0","ea1df0","ea3220"]},
        "ea05b0":{"X":-1.309017,"Y":-4.028740,"ANG":360,"POLYGONS":["ea0ab0","ea1670","ea2070","ea3580","ea3b40"]},
        "ea0b80":{"X":2.927051,"Y":-4.028740,"ANG":360,"POLYGONS":["ea0d90","ea1ef0","ea2840"]},
        "ea0b20":{"X":4.236068,"Y":-4.979797,"ANG":360,"POLYGONS":["ea0d90","ea1ef0","ea1ff0","ea34f0"]},
        "ea10a0":{"X":4.236068,"Y":0.000000,"ANG":360,"POLYGONS":["ea0dd0","ea0f90","ea2b00","ea2360","ea4590"]},
        "ea0ec0":{"X":3.427051,"Y":2.489898,"ANG":360,"POLYGONS":["ea0f90","ea2360","ea2c80","ea4a10","ea5250"]},
        "ea0e90":{"X":0.500000,"Y":1.538842,"ANG":360,"POLYGONS":["ea1250","ea2c80","ea3260"]},
        "ea0f30":{"X":-0.809017,"Y":2.489898,"ANG":360,"POLYGONS":["ea1250","ea1ad0","ea3260","ea2d10"]},
        "ea1740":{"X":-3.427051,"Y":-2.489898,"ANG":360,"POLYGONS":["ea1670","ea1df0","ea3580","ea2e80","ea5900"]},
        "ea16e0":{"X":-1.309017,"Y":0.951057,"ANG":360,"POLYGONS":["ea1ad0","ea3220","ea2d10"]},
        "ea1b10":{"X":-4.236068,"Y":0.000000,"ANG":360,"POLYGONS":["ea1df0","ea3220","ea2e80","ea6080","ea60f0"]},
        "ea1410":{"X":0.000000,"Y":-4.979797,"ANG":360,"POLYGONS":["ea2070","ea2840","ea4200"]},
        "ea20b0":{"X":-0.500000,"Y":-6.518638,"ANG":360,"POLYGONS":["ea2070","ea3b40","ea4200","ea6b70"]},
        "ea2190":{"X":2.118034,"Y":-6.518638,"ANG":288,"POLYGONS":["ea1ef0","ea2840","ea4200","ea44c0","ea7050"]},
        "ea1fc0":{"X":4.736068,"Y":-6.518638,"ANG":216,"POLYGONS":["ea1ef0","ea44c0","ea34f0"]},
        "ea13c0":{"X":4.736068,"Y":-3.440955,"ANG":360,"POLYGONS":["ea1ff0","ea34f0","ea43d0"]},
        "ea2210":{"X":6.045085,"Y":-2.489898,"ANG":360,"POLYGONS":["ea1ff0","ea2b00","ea43d0","ea3d40"]},
        "ea29d0":{"X":4.736068,"Y":-1.538842,"ANG":360,"POLYGONS":["ea2b00","ea4590","ea3d40"]},
        "ea2910":{"X":4.736068,"Y":1.538842,"ANG":360,"POLYGONS":["ea2360","ea4590","ea51b0"]},
        "ea24d0":{"X":6.045085,"Y":2.489898,"ANG":360,"POLYGONS":["ea2360","ea51b0","ea4a10","ea6b30"]},
        "ea2d50":{"X":1.309017,"Y":4.028740,"ANG":360,"POLYGONS":["ea2c80","ea3260","ea5250","ea5830","ea7aa0"]},
        "ea2a50":{"X":-1.309017,"Y":4.028740,"ANG":360,"POLYGONS":["ea3260","ea2d10","ea5830","ea5940","ea82a0"]},
        "ea32a0":{"X":-2.927051,"Y":-4.028740,"ANG":360,"POLYGONS":["ea3580","ea5290","ea5900"]},
        "ea32d0":{"X":-3.427051,"Y":-5.567582,"ANG":360,"POLYGONS":["ea3580","ea3b40","ea5290","ea6df0"]},
        "ea3390":{"X":-3.427051,"Y":2.489898,"ANG":360,"POLYGONS":["ea3220","ea2d10","ea6080","ea5940","ea8340"]},
        "ea3840":{"X":-4.736068,"Y":-1.538842,"ANG":360,"POLYGONS":["ea2e80","ea5900","ea6850"]},
        "ea3870":{"X":-6.354102,"Y":-1.538842,"ANG":360,"POLYGONS":["ea2e80","ea60f0","ea6850","ea8420","ea89f0"]},
        "ea3410":{"X":-1.809017,"Y":-5.567582,"ANG":360,"POLYGONS":["ea3b40","ea6b70","ea6df0"]},
        "ea3bb0":{"X":-0.000000,"Y":-8.057480,"ANG":216,"POLYGONS":["ea4200","ea6b70","ea7050"]},
        "ea4750":{"X":6.854102,"Y":0.000000,"ANG":288,"POLYGONS":["ea4590","ea3d40","ea51b0","ea62b0","ea62f0"]},
        "ea4440":{"X":7.663119,"Y":-2.489898,"ANG":216,"POLYGONS":["ea43d0","ea3d40","ea62b0"]},
        "ea4700":{"X":7.663119,"Y":2.489898,"ANG":216,"POLYGONS":["ea51b0","ea62f0","ea6b30"]},
        "ea48d0":{"X":4.736068,"Y":3.440955,"ANG":360,"POLYGONS":["ea4a10","ea6b30","ea77c0"]},
        "ea4b00":{"X":4.236068,"Y":4.979797,"ANG":360,"POLYGONS":["ea4a10","ea5250","ea77c0","ea7dc0"]},
        "ea5180":{"X":2.927051,"Y":4.028740,"ANG":360,"POLYGONS":["ea5250","ea7aa0","ea7dc0"]},
        "ea52f0":{"X":0.000000,"Y":4.979797,"ANG":360,"POLYGONS":["ea5830","ea7aa0","ea8040"]},
        "ea5320":{"X":-0.500000,"Y":6.518638,"ANG":360,"POLYGONS":["ea5830","ea8040","ea82a0","ea9da0","eaa060"]},
        "ea55d0":{"X":-5.545085,"Y":-4.028740,"ANG":324,"POLYGONS":["ea5290","ea5900","ea6850","ea8080","ea9640"]},
        "ea5550":{"X":-4.736068,"Y":-6.518638,"ANG":216,"POLYGONS":["ea5290","ea6df0","ea8080"]},
        "ea5410":{"X":-6.045085,"Y":2.489898,"ANG":360,"POLYGONS":["ea6080","ea8340","ea76e0"]},
        "ea59a0":{"X":-5.545085,"Y":0.951057,"ANG":360,"POLYGONS":["ea6080","ea60f0","ea76e0","ea8ec0"]},
        "ea5500":{"X":-2.618034,"Y":4.979797,"ANG":360,"POLYGONS":["ea5940","ea82a0","ea83e0","eaa380"]},
        "ea5af0":{"X":-4.236068,"Y":4.979797,"ANG":360,"POLYGONS":["ea5940","ea8340","ea83e0"]},
        "ea9060":{"X":-7.163119,"Y":0.951057,"ANG":360,"POLYGONS":["ea60f0","ea8ec0","ea8420"]},
        "ea5c80":{"X":-7.663119,"Y":-2.489898,"ANG":360,"POLYGONS":["ea6850","ea89f0","ea9640"]},
        "ea8a60":{"X":2.118034,"Y":6.518638,"ANG":324,"POLYGONS":["ea7aa0","ea7dc0","ea8040","ea8e50","ea9140"]},
        "ea9180":{"X":4.736068,"Y":6.518638,"ANG":216,"POLYGONS":["ea77c0","ea7dc0","ea8e50"]},
        "ea7d90":{"X":0.000000,"Y":8.057480,"ANG":360,"POLYGONS":["ea8040","ea9140","ea9da0"]},
        "eaa100":{"X":-3.118034,"Y":6.518638,"ANG":360,"POLYGONS":["ea82a0","eaa060","eaa380"]},
        "ea8480":{"X":-5.545085,"Y":4.028740,"ANG":216,"POLYGONS":["ea8340","ea76e0","ea83e0"]}
    }
}
