%!PS

0 0 moveto
1000 0 lineto
1000 1000 lineto
0 1000 lineto
0 0 lineto
fill

/sc 40 def

1 1 0 setrgbcolor

150 250 translate

1 2 sqrt div 1 scale
315 rotate

0 1 5 {
    /y exch def

    0 1 5 {
        /x exch def

        x sc mul y sc mul moveto
        sc 0 rlineto
        0 sc rlineto
        sc neg dup rlineto
        1 1 0 setrgbcolor fill

        x sc mul y sc mul moveto
        sc 3 div 0 rlineto
        sc 3 div dup rlineto
        0 sc 3 div rlineto
        closepath
        1 0 0 setrgbcolor fill

        x sc mul sc 3 div add y sc mul moveto
        sc 3 div dup rlineto
        sc 3 div 0 rlineto
        0 sc -3 div rlineto
        closepath
        0 1 0 setrgbcolor fill

    } for
} for
