%!PS
%%BoundingBox: 0 0 800 800
%%EndComments

%%%%%%%%%%%%%%%%%%%%%%%%%%%%%%%%%%%%%%%%%%%%%%%%%%
% Icosahedron
%%%%%%%%%%%%%%%%%%%%%%%%%%%%%%%%%%%%%%%%%%%%%%%%%%

/eye_y -8 def  % posn of the eye on the y-axis
/scn_y -5 def   % posn of the screen on the y-axis

/min_z 1000 def

/lamp [ (lamp) 1000 -1000 1000 ] def

/rx 0  def     % Rotations about the axes
/ry 0  def
/rz 0 def

/sc 350 def     % Image scaling factor

/phi 1 5 sqrt add 2 div def
/ph2 1 phi div def              % 1/phi

/floor_gray .7 def
/shadow_gray .2 def

%%%%%%%%%%%%%%%%%%%%%%%%%%%%%%
% Setup

<<
    /PageSize [ 800 800 ]
    /ImagingBBox null 
>> setpagedevice

gsave   % background
0 0 moveto
1000 0 lineto
1000 1000 lineto
0 1000 lineto
0 setgray fill
grestore

gsave   % floor
0 0 moveto
1000 0 lineto
1000 300 lineto
0 300 lineto
floor_gray setgray fill
grestore

/Arial findfont 10 scalefont setfont

1 setgray

400 300 translate

%%%%%%%%%%%%%%%%%%%%%%%%%%%%%%
% Draw and label a vertex

/vtx {  % [() x y z] vtx -

    6 dict begin gsave
    /_v exch def

    /_r 3 def

    _v view 
    /_y exch def
    /_x exch def

    0 10 360 {
        /_a exch def
        _a cos _r mul _x add
        _a sin _r mul _y add
        _a 0 eq { moveto } { lineto } ifelse
    } for
    .8 setgray fill

    1 setgray 
    _x 5 add _y 5 add moveto
    _v 0 get show

    end grestore
} def

%%%%%%%%%%%%%%%%%%%%%%%%%%%%%%
% Draw and label an axis

/axis {  % [() x y z] axis -

    1 dict begin
    /_v exch def

    [ (o) 0 0 0 ] view moveto
    _v view lineto
    stroke

    _v view moveto
    5 5 rmoveto
    _v 0 get show

    end
} def

%%%%%%%%%%%%%%%%%%%%%%%%%%%%%%
%  Rotate about the x-axis

/rotx {  % [() x y z] rotx [() x y z]

    1 dict begin
    /_v exch def

    [
        _v 0 get 
        _v 1 get 
        _v 2 get rx cos mul _v 3 get rx sin mul add 
        _v 3 get rx cos mul _v 2 get rx sin mul sub
    ]

    end
} def

%%%%%%%%%%%%%%%%%%%%%%%%%%%%%%
% Rotate about the y-axis

/roty {  % [() x y z] rotx [() x y z]

    1 dict begin
    /_v exch def

    [
        _v 0 get
        _v 1 get ry cos mul _v 3 get ry sin mul sub
        _v 2 get
        _v 1 get ry sin mul _v 3 get ry cos mul add
    ]

    end
} def

%%%%%%%%%%%%%%%%%%%%%%%%%%%%%%
% Rotate about the z-axis

/rotz {  % [() x y z] rotx [() x y z]

    1 dict begin
    /_v exch def

    [
        _v 0 get
        _v 1 get rz cos mul _v 2 get rz sin mul add
        _v 2 get rz cos mul _v 1 get rz sin mul sub
        _v 3 get
    ]

    end
} def

%%%%%%%%%%%%%%%%%%%%%%%%%%%%%%
% Rotate about the all axes and define

/rdef { % /v [] rdef -

    rotx roty rotz 

    dup 3 1 roll

    dup 3 1 roll
    def

    3 get dup min_z lt { /min_z exch def } { pop } ifelse

    [ vlist aload pop counttomark 2 add -1 roll ] /vlist exch def

} def

%%%%%%%%%%%%%%%%%%%%%%%%%%%%%%
% Convert a 3d pt to a screen pt

/view { % [() x y z] view x y

    1 dict begin 

    /_v exch def

    _v 1 get scn_y eye_y sub mul _v 2 get eye_y sub div
    dup

    _v 3 get exch dup mul scn_y eye_y sub dup mul add sqrt mul
        _v 1 get dup mul _v 2 get eye_y sub dup mul add sqrt div

    exch sc mul
    exch sc mul
    
    end
} def

%%%%%%%%%%%%%%%%%%%%%%%%%%%%%%
% Draw an edge

/edge { % [() x y z] [() x y z] edge -

    view moveto
    view lineto
    stroke
} def

%%%%%%%%%%%%%%%%%%%%%%%%%%%%%%
% playing....

/face2 {

    5 dict begin gsave
    /_f exch def
_f 0 get ==
    /_v1 _f 2 get _f 1 get vrsub def
    /_v2 _f 3 get _f 1 get vrsub def

    /_n _v1 _v2 vrcross norm def   % normal

    /_c _f aload pop _f length 2 sub { vradd } repeat 1 3 div vrmul exch pop def

    0 1 0 setrgbcolor
    _c view moveto
    _n _c vradd _n .3 vrmul vradd view lineto
    stroke

    grestore end
} def

%%%%%%%%%%%%%%%%%%%%%%%%%%%%%%
% Draw a shadow

/shadow { % [ () vr .. ] shadow -

    5 dict begin gsave 
    
    /_f exch def

    /_op { moveto } def

    2 1 _f length {
    
        _f exch 1 sub get /_v exch def
        /_d _v lamp vrsub norm def

        /_v min_z lamp 3 get sub _d 3 get div def

        lamp _d _v vrmul vradd view _op
        /_op { lineto } def

    } for

    shadow_gray setgray fill

    grestore end

} def

%%%%%%%%%%%%%%%%%%%%%%%%%%%%%%
% Draw a face

/face { % [ () [] [] ... ] fill_or_stroke face -

    8 dict begin gsave

    /_fill exch def
    /_f exch def

    /_v1 _f 2 get _f 1 get vrsub def
    /_v2 _f 3 get _f 1 get vrsub def

    /_n _v1 _v2 vrcross norm def   % normal

    /_c _f aload pop _f length 2 sub { vradd } repeat .2 vrmul exch pop def

    _c [ (eye) 0 eye_y 0 ] vrsub norm _n vrdot 0 lt {

        _f dup length 1 sub get view moveto

        2 1 _f length {
            _f exch 1 sub get view lineto
        } for

        _fill {
            gsave 
            /_g lamp norm _n vrdot def
            _g .2 lt { /_g .2 def } if
            _g setgray
            fill 
            grestore
        } if

        stroke
    } if

    grestore end

} def

%%%%%%%%%%%%%%%%%%%%%%%%%%%%%%
% Add 2 vectors

/vradd { % [() x y z] [() x y z] vradd [() x y z] 

    2 dict begin

    /_v2 exch def
    /_v1 exch def

    [
        (sub)
        _v1 1 get _v2 1 get add
        _v1 2 get _v2 2 get add
        _v1 3 get _v2 3 get add
    ]

    end
} def

%%%%%%%%%%%%%%%%%%%%%%%%%%%%%%
% Subtract 2 vectors

/vrsub { % [() x y z] [() x y z] vrsub [() x y z] 

    2 dict begin

    /_v2 exch def
    /_v1 exch def

    [
        (sub)
        _v1 1 get _v2 1 get sub
        _v1 2 get _v2 2 get sub
        _v1 3 get _v2 3 get sub
    ]

    end
} def

%%%%%%%%%%%%%%%%%%%%%%%%%%%%%%
% Multiply 2 vectors

/vrmul { % [() x y z] val vrmul [() x y z] 

    2 dict begin

    /_f exch def
    /_v1 exch def

    [
        _v1 0 get
        _v1 1 get _f mul
        _v1 2 get _f mul
        _v1 3 get _f mul
    ]

    end
} def

%%%%%%%%%%%%%%%%%%%%%%%%%%%%%%
% Normalise a vector

/norm { % [() x y z] norm [() x y z] 

    1 dict begin

    /_v1 exch def
    
    /_d 0 def

    _v1 aload pop
    3 { dup mul _d add /_d exch def } repeat
    pop

    /_d _d sqrt def

    [
        (norm)
        _v1 1 get _d div 
        _v1 2 get _d div 
        _v1 3 get _d div 
    ]

    end
} def

%%%%%%%%%%%%%%%%%%%%%%%%%%%%%%
% Dot product of 2 vectors

/vrdot { % [() x y z] [() x y z] vrcross val

    2 dict begin

    /_v2 exch def
    /_v1 exch def

    _v1 1 get _v2 1 get mul
    _v1 2 get _v2 2 get mul add
    _v1 3 get _v2 3 get mul add

    end
} def

%%%%%%%%%%%%%%%%%%%%%%%%%%%%%%
% Cross product of 2 vectors

/vrcross { % [() x y z] [() x y z] vrcross [() x y z] 

    2 dict begin

    /_v2 exch def
    /_v1 exch def

    [
        (vrcross)
        _v1 2 get _v2 3 get mul _v1 3 get _v2 2 get mul sub
        _v1 3 get _v2 1 get mul _v1 1 get _v2 3 get mul sub
        _v1 1 get _v2 2 get mul _v1 2 get _v2 1 get mul sub
    ]

    end
} def

%%%%%%%%%%%%%%%%%%%%%%%%%%%%%%
% Display a vertex

/vdisp {

    4 dict begin 

    /_v exch def
    
    /_dstr 80 string def
    /_vstr 20 string def

    _v 0 get
    dup length /_p exch def
    _dstr 0 3 2 roll putinterval

    _dstr _p ( x: ) putinterval
    /_p _p 4 add def

    _v 1 get _vstr cvs
    _dstr _p _vstr putinterval
    /_p _p 9 add def

    _dstr _p ( y: ) putinterval
    /_p _p 4 add def

    _v 2 get _vstr cvs
    _dstr _p _vstr putinterval
    /_p _p 9 add def

    _dstr _p ( z: ) putinterval
    /_p _p 4 add def

    _v 3 get _vstr cvs
    _dstr _p _vstr putinterval
    /_p _p 9 add def

    0 1 _p {
         dup
        _dstr exch get
        0 eq {
            _dstr exch ( ) putinterval
        } {
            pop
        } ifelse
    } for

    _dstr 0 _p getinterval ==

    end
} def

%%%%%%%%%%%%%%%%%%%%%%%%%%%%%%
% Add the array to flist and define

/fdef { % /f [] fdef -

    dup 3 1 roll
    def
    [ flist aload pop counttomark 2 add -1 roll ] /flist exch def

} def

%%%%%%%%%%%%%%%%%%%%%%%%%%%%%%
% Definitions

/vlist [] def

% axes
/ax [ (x) 2 0 0 ] rdef
/ay [ (y) 0 2 0 ] rdef
/az [ (z) 0 0 2 ] rdef

% vertices
/v0  [ (v0)   0       1      phi     ] rdef
/v1  [ (v1)   0       1      phi neg ] rdef
/v2  [ (v2)   0      -1      phi     ] rdef
/v3  [ (v3)   0      -1      phi neg ] rdef

/v4  [ (v4)   1      phi      0      ] rdef
/v5  [ (v5)   1      phi neg  0      ] rdef
/v6  [ (v6)  -1      phi      0      ] rdef
/v7  [ (v7)  -1      phi neg  0      ] rdef

/v8  [ (v8)  phi     0        1      ] rdef
/v9  [ (v9)  phi neg 0        1      ] rdef
/v10 [ (v10) phi     0       -1      ] rdef
/v11 [ (v11) phi neg 0       -1      ] rdef

% faces
/flist [] def
%/r1  [ (r1)  v0  v1  v3  v2  ] fdef
%/r2  [ (r2)  v4  v5  v7  v6  ] fdef
%/r3  [ (r3)  v8  v9  v11 v10 ] fdef

/f1  [ (f1) v0  v2  v8  ] fdef
/f2  [ (f2) v0  v8  v4  ] fdef
/f3  [ (f3) v0  v4  v6  ] fdef
/f4  [ (f4) v0  v6  v9  ] fdef
/f5  [ (f5) v0  v9  v2  ] fdef

/f6  [ (f6)  v3  v1  v10 ] fdef
/f7  [ (f7)  v3  v10 v5  ] fdef
/f8  [ (f8)  v3  v5  v7  ] fdef
/f9  [ (f9)  v3  v7  v11 ] fdef
/f10 [ (f10) v3  v11 v1  ] fdef

/f11 [ (f11) v4  v1  v6  ] fdef
/f12 [ (f12) v1  v11 v6  ] fdef
/f13 [ (f13) v6  v11 v9  ] fdef
/f14 [ (f14) v11 v7  v9  ] fdef
/f15 [ (f15) v9  v7  v2  ] fdef
/f16 [ (f16) v7  v5  v2  ] fdef
/f17 [ (f17) v2  v5  v8  ] fdef
/f18 [ (f18) v5  v10 v8  ] fdef
/f19 [ (f19) v8  v10 v4  ] fdef
/f20 [ (f20) v10 v1  v4  ] fdef

%%%%%%%%%%%%%%%%%%%%%%%%%%%%%%
% Drawing...

.5 .5 0 setrgbcolor
flist { shadow } forall
flist { true face } forall
flist { false face } forall

vlist { vtx } forall

v0 vdisp
v2 vdisp
