%!PS
%%BoundingBox: 0 0 1000 1000
%%EndComments

% Setup the display
<<
    /PageSize [ 1000 1000 ]
    /ImagingBBox null
>> setpagedevice

/mv { moveto } def
/ln { lineto } def

0 0 mv
1000 0 ln
1000 1000 ln
0 1000  ln
fill

500 500 translate

/rad 100 def

rad neg 0 rad {

    /y exch def

    rad neg 0 rad {

        /x exch def

        x dup mul y dup mul add rad dup mul lt {
            1 setgray
            0 0 mv 1 0 ln 1 1 ln 0 1 ln fill
        } if
    } for

} for
