%!PS

290.5 421 translate

/sz 30 def

.5 setgray
0 1 300 {
    /v exch def
    -500 v sz mul moveto 
    500 v sz mul lineto 
    stroke
} for

.5 setgray
-100 1 100 {
    /v exch def
    v sz mul 0 moveto
    v sz mul 500 lineto
} for

.5 setgray
-300 1 0 {
    /v exch def
    -500 v sz mul 3 sqrt mul 2 div moveto 
    500 v sz mul 3 sqrt mul 2 div lineto 
    stroke
} for

.8 setgray
-100 1 100 {
    /v exch def
    v sz mul 0 moveto
    v sz mul 500 sub 500 lineto
    stroke
} for

.8 setgray
-100 1 100 {
    /v exch def
    v sz mul 0 moveto
    500 500 3 sqrt mul neg rlineto
    v sz mul 0 moveto
    500 neg 500 3 sqrt mul neg rlineto
    stroke
} for
