%!PS
%%BoundingBox: 0 0 1000 1000
%%EndComments

% Setup the display
<<
    /PageSize [ 1000 1000 ]
    /ImagingBBox null
>> setpagedevice

0 0 moveto
1000 0 lineto
1000 1000 lineto
0 1000 lineto
0 0 lineto
fill

500 100 translate 

1 1 0 setrgbcolor

/sz 450 def

/drawln {

    /uy exch def
    /ux exch def
    /ly exch def
    /lx exch def

    /m 100 def

    /dx ux lx sub m div def
    /dy uy ly sub m div def

    0 1 m {
        /p exch def
        /x lx p dx mul add def
        /y ly p dy mul add def

        /x x y sz div sqrt mul def

        x y p 0 eq { moveto } { lineto } ifelse
    } for

    stroke 

} def

0 1 0 setrgbcolor
sz neg 0 sz 0 drawln
sz 0 0 sz 3 sqrt mul drawln
0 sz 3 sqrt mul sz neg 0 drawln

sz 3 mul -4 div sz 3 sqrt mul 4 div
sz 3 mul 4 div sz 3 sqrt mul 4 div drawln

sz -4 div sz 3 sqrt mul 4 div
sz  4 div sz 3 sqrt mul 4 div drawln

sz -4 div sz 3 sqrt mul 3 mul 4 div
sz  4 div sz 3 sqrt mul 3 mul 4 div drawln

sz -4 div sz 3 sqrt mul 3 mul 4 div
sz 2 div 0 drawln

sz 4 div sz 3 sqrt mul 3 mul 4 div
sz -2 div 0 drawln

sz -2 div sz 3 sqrt mul 2 div
sz 2 div sz 3 sqrt mul 2 div drawln

sz -2 div sz 3 sqrt mul 2 div 0 0 drawln
sz 2 div sz 3 sqrt mul 2 div 0 0 drawln
