%!PS
%BoundingBox: 0 0 1000.000000 1000.000000
%EndComments

<<
    /PageSize [ 1000.000000 1000.000000 ]
    /ImagingBBox null
>> setpagedevice

/mv { moveto } bind def
/ln { lineto } bind def

/sc 900.000000 def
/xoff 50.000000 def
/yoff 50.000000 def

/trns {
    /y exch def
    /x exch def

    /nx x 500 sub 900 div def
    /ny y 500 sub 900 div def

    x sc mul xoff add
    y sc mul yoff add
} def

0 0 mv 1000.000000 0 ln 1000.000000 1000.000000 ln 0 1000.000000 ln fill

1 setlinejoin
1 1 0 setrgbcolor

/trns {

    /y exch def
    /x exch def

    /nx x ux lx add 2 div sub ux lx sub 2 div div def
    /ny y uy ly add 2 div sub uy ly sub 2 div div def
    
    nx 1 ny dup mul 2 div sub sqrt mul ux lx sub 2 div mul ux lx add 2 div add
    ny 1 nx dup mul 2 div sub sqrt mul uy ly sub 2 div mul uy ly add 2 div add

%%    x y

} def

/dot {

    /rad 3 def

    gsave
    translate

    0 10 360 {
        /a exch def
        rad a cos mul
        rad a sin mul
        a 0 eq { mv } { ln } ifelse
    } for

    fill

    grestore

} def

/img_w 1000 def
/img_d 1000 def
/img_u 0.9 def

/lx img_w 1 img_u sub mul 2 div def
/ly img_d 1 img_u sub mul 2 div def

/ux img_w img_w 1 img_u sub mul 2 div sub def
/uy img_d img_d 1 img_u sub mul 2 div sub def

0 30 img_d {

    /row exch def

    0 30 img_w {

        /col exch def
        
        row ly ge
        col lx ge and
        row uy le and
        col ux le and {

            row col trns dot
        } if
    } for
} for
