%!PS
%%BoundingBox: 0 0 1000 1000
%%EndComments

%%%%%%%%%%%%%%%%%%%%%%%%%%%%%%%%%%%%%%%%%%%%%%%%%%
% Treansform a circle to a cardioid
%%%%%%%%%%%%%%%%%%%%%%%%%%%%%%%%%%%%%%%%%%%%%%%%%%

<<
    /PageSize [ 1000 1000 ]
    /ImagingBBox null
>> setpagedevice

% Background
0 0 moveto
1000 0 rlineto
0 1000 rlineto
-1000 0 rlineto
0 -1000 rlineto
fill

350 500 translate

/s 150 def

%%%%%%%%%%%%%%%%%%%%%%%%%%%%%%%%%%%%%%%%%%%%%%%%%%
% Draw the cicle

0 1 1000 {
    360 mul 1000 div /a exch def
    a sin 1 add s mul
    a cos s mul
    a 0 eq { moveto } { lineto } ifelse
} for

0 1 0 setrgbcolor stroke

%%%%%%%%%%%%%%%%%%%%%%%%%%%%%%%%%%%%%%%%%%%%%%%%%%
% Draw the cardioid

0 1 1000 {
    360 mul 1000 div /a exch def
    a 2 mul cos a cos 2 mul add 1 add s mul
    a 2 mul sin 2 a sin mul add s mul
    a 0 eq { moveto } { lineto } ifelse
} for

1 0 0 setrgbcolor stroke

%%%%%%%%%%%%%%%%%%%%%%%%%%%%%%%%%%%%%%%%%%%%%%%%%%
% Draw a radius

/drawrad {  % deg r g b drawrad -

    gsave
    setrgbcolor

    /a exch  def

    0 1 1000 {
        1000 div /m exch def
        a sin m mul 1 add s mul
        a cos m mul s mul
        m 0 eq { moveto } { lineto } ifelse
    } for
    
    0 1 1000 {
        1000 div /m exch def
        a sin m mul 1 add /u exch def
        a cos m mul /v exch def
        u u mul v v mul sub s mul
        u v mul 2 mul s mul
        m 0 eq { moveto } { lineto } ifelse
    } for
    
    stroke
} def

  0 0 1 1 drawrad
180 0 1 1 drawrad

 30 1 1 0 drawrad
150 1 1 0 drawrad

 45 0 0 1 drawrad
135 0 0 1 drawrad

 60 1 0 1 drawrad
120 1 0 1 drawrad

300 1 0 1 drawrad
240 1 0 1 drawrad

315 0 0 1 drawrad
225 0 0 1 drawrad

330 1 1 0 drawrad
210 1 1 0 drawrad

showpage
