%!PS
%%BoundingBox: 0 0 1000 1000
%%EndComments

%%%%%%%%%%%%%%%%%%%%%%%%%%%%%%%%%%%%%%%%%%%%%%%%%%
% The pedal curve of a circle...
%%%%%%%%%%%%%%%%%%%%%%%%%%%%%%%%%%%%%%%%%%%%%%%%%%

<<
    /PageSize [ 1000 1000 ]
    /ImagingBBox null
>> setpagedevice

% Parameters
/xc 0 def
/yc 0 def
/rc 200 def

/xp -200 def
/yp 0 def

% Background
0 0 moveto
1000 0 rlineto
0 1000 rlineto
-1000 0 rlineto
0 -1000 rlineto
fill

1000 2 div 80 add
1000 2 div
translate
1.5 dup scale

% Simple marker function
/dot {

    /_y exch def
    /_x exch def

    gsave
    .3 setlinewidth
    /_r 3 def
    0 1 360 {
        /_a exch def
        _a cos _r mul _x add
        _a sin _r mul _y add
        _a 0 eq { moveto } { lineto } ifelse
    } for
%    stroke
    grestore

} def

% Anchor point
1 0 0 setrgbcolor xp yp dot
0 0 1 setrgbcolor xc yc dot

% Draw the generator circle
.4 setgray
0 10 360 {

    /a exch def
    a cos rc mul xc add
    a sin rc mul yc add
    dot

} for

% Draw the curve
0 .75 360 {

    /a exch 180 add def

    /s
        yp yc sub a sin rc mul sub a sin mul
        xp xc sub a cos rc mul sub a cos mul add
        -1.0 div
    def

    .6 .6 0 setrgbcolor
    a cos s mul xp add
    a sin s mul yp add
    dot

    xp yp moveto

    a cos s mul xp add
    a sin s mul yp add lineto

    a cos rc mul xc add
    a sin rc mul yc add lineto

    xc yc lineto

    1 1 0 setrgbcolor
    .1 setlinewidth
    stroke

} for

showpage
