%!PS
%%BoundingBox: 0 0 1000 1000
%%EndComments

%%%%%%%%%%%%%%%%%%%%%%%%%%%%%%%%%%%%%%%%%%%%%%%%%%
% The pedal curve of a circle...
%%%%%%%%%%%%%%%%%%%%%%%%%%%%%%%%%%%%%%%%%%%%%%%%%%

<<
    /PageSize [ 1000 1000 ]
    /ImagingBBox null
>> setpagedevice

% Parameters
/xc 0 def
/yc 0 def
/rc 100 def

/xp rc def
/yp 0 def

% Background
0 0 moveto
1000 0 rlineto
0 1000 rlineto
-1000 0 rlineto
0 -1000 rlineto
fill

1000 2 div 100 add
1000 2 div
translate

1.5 dup scale

% Set the color
/spectrum {

    /v exch def
    {
        v 1 gt {
            /v v 1 sub def
        } {
            v 0 lt {
                /v v 1 add def
            } {
                exit
            } ifelse
        } ifelse

    } loop

    /a v 180 mul 90 add def

    /q .35 def

    a sin q mul 1 q sub add
    a 120 add sin q mul 1 q sub add
    a 240 add sin q mul 1 q sub add

    setrgbcolor
} def

% Draw a disc
/disc {

    /_r exch def
    /_y exch def
    /_x exch def

    gsave
    0 1 360 {
        /_a exch def
        _a cos _r mul _x add
        _a sin _r mul _y add
        _a 0 eq { moveto } { lineto } ifelse
    } for
    stroke
    grestore

} def

%0 0 1 setrgbcolor
%xc yc rc disc

1 1 0 setrgbcolor
.3 setlinewidth
0 2 360 {

    /a exch def

    /x a cos rc mul xc add def
    /y a sin rc mul yc add def

    x y 
    x xp sub dup mul
    y yp sub dup mul
    add sqrt

    a 180 div dup 1 gt { 2 exch sub } if spectrum
    disc

} for

%1 0 0 setrgbcolor
%xp yp 5 disc

showpage
