%!PS

/xc 300 def
/yc 350 def

/max_r 250 def

.5 setlinewidth

/xdef { exch def } bind def

/circle {

    /rad xdef
    /y xdef
    /x xdef
    
    0 1 360 {

        /a xdef
        x rad a cos mul add
        y rad a sin mul add

        a 0 eq { moveto } { lineto } ifelse

    } for

    stroke

} def

.4 setgray
0 25 max_r {
    xc yc 3 2 roll circle
} for

0 10 360 {

    /a exch def

    xc yc moveto
    xc max_r a cos mul add
    yc max_r a sin mul add
    lineto
} for

stroke

showpage
