%!PS
%%BoundingBox: 0 0 1000 1000
%%EndComments

<<
    /PageSize [ 1000 1000 ]
    /ImagingBBox null
>> setpagedevice

%%%%%%%%%%%%%%%%%%%%%%%%%%%%%%%%%%%%%%%%%%%%%%%%%%
% Circular inversion of a latice
%%%%%%%%%%%%%%%%%%%%%%%%%%%%%%%%%%%%%%%%%%%%%%%%%%

/show_discs false def

% Parameters
/page_wid 1000 def   % A4
/page_dep 1000 def

/latice_sz 30 def
/inv_rad 430 def    % disc of application
/inv_xc 0 def   
/inv_yc 0 def

/inv_mx 70 def     % Increments to test inside the inv disc  
/inv_mul 1.2 def    % Increase in sample point for inversion

   0    0 moveto
1000    0 lineto
1000 1000 lineto
   0 1000 lineto
fill

page_wid 2 div
page_dep 2 div
translate

/x_steps 500 def
/y_steps 500 def

% Inversion function
/inv {

    /_y exch def
    /_x exch def

    /_d 
    _x inv_xc sub dup mul
    _y inv_yc sub dup mul
    add sqrt
    def

    _x inv_rad dup mul mul _d dup mul div
    _y inv_rad dup mul mul _d dup mul div
} def

% Draw the inverting circle (maybe)
show_discs {

    0 2 360 {
        /a exch def
        a cos inv_rad mul inv_xc add 
        a sin inv_rad mul inv_yc add 

        a 0 eq { moveto } { lineto } ifelse

    } for

    0.3 setgray fill

} if 

1 setlinewidth 
0 0 1 setrgbcolor 

% Draw the latice verticals
x_steps neg 1 x_steps {

    dup dup 0 lt { neg } if x_steps div 1 exch sub dup mul setlinewidth

    /x exch latice_sz mul def

    /v inv_rad dup mul x inv_xc sub dup mul sub def
    v 0 lt {
       /v 0 def
    } {
        /v v sqrt def
    } ifelse

    x page_dep -2 div moveto
    x inv_yc v sub lineto
    stroke

    /dv 1 def
    /y inv_yc v sub def
    /lnsz 1 def
    inv_mx {
        x y inv moveto
        /dv dv inv_mul mul def
        /y y dv sub def
        x y inv lineto
        stroke
        /lnsz lnsz 0.95 mul def
    } repeat

    /dv 1 def
    /y inv_yc v add def
    /lnsz 1 def
    inv_mx {
        x y inv moveto
        /dv dv inv_mul mul def
        /y y dv add def
        x y inv lineto
        stroke
        /lnsz lnsz 0.95 mul def
    } repeat

    x inv_yc v add moveto
    x page_dep 2 div lineto
    stroke
} for

% Draw the latice horizontals
y_steps neg 1 y_steps {

    dup dup 0 lt { neg } if x_steps div 1 exch sub dup mul setlinewidth

    /y exch latice_sz mul def

    /v inv_rad dup mul y inv_yc sub dup mul sub def
    v 0 lt {
       /v 0 def
    } {
        /v v sqrt def
    } ifelse

    page_wid -2 div y moveto
    inv_xc v sub y lineto
    stroke

    /dv 1 def
    /x inv_xc v sub def
    /lnsz 1 def
    inv_mx {
        x y inv moveto
        /dv dv inv_mul mul def
        /x x dv sub def
        x y inv lineto
        stroke
        /lnsz lnsz 0.95 mul def
    } repeat

    /dv 1 def
    /x inv_xc v add def
    /lnsz 1 def
    inv_mx {
        x y inv moveto
        /dv dv inv_mul mul def
        /x x dv add def
        x y inv lineto
        stroke
        /lnsz lnsz 0.95 mul def
    } repeat

    inv_xc v add y moveto
    page_wid 2 div y lineto
    stroke
} for
