%!PS

/depth 18 def

/lx 390 def
/ly 220 def

/ux 390 def
/uy 620 def

/xdef { exch def } bind def
/l 0 def

0 0 moveto
10000 0 lineto
10000 10000 lineto
0 10000 lineto
closepath fill

.3 setlinewidth

/elbow {

   /y2 xdef
   /x2 xdef
   /y1 xdef
   /x1 xdef
   /d xdef
   /side xdef

   side (l) eq { 
      /xc x1 x2 y2 sub x1 y1 sub sub 2 div add def
      /yc y1 x2 y2 add x1 y1 add sub 2 div add def
   } {
      /xc x1 x2 y2 add x1 y1 add sub 2 div add def
      /yc y1 y2 x2 sub y1 x1 sub sub 2 div add def
   } ifelse
      
   d 0 gt {

      (l) d 1 sub x2 y2 xc yc
      (r) d 1 sub xc yc x1 y1

      elbow elbow

   } {
      
      /l l 1 add def

      %l 2 mod 0 eq { 1 0 0 } { 0 0 1 } ifelse setrgbcolor
      /a l 2 depth exp div 250 mul def
      a sin .25 mul .75 add
      a 120 add sin .25 mul .75 add
      a 240 add sin .25 mul .75 add
      setrgbcolor

      x1 y1 moveto
      xc yc lineto
      x2 y2 lineto
      stroke

   } ifelse

} def

(l) depth lx ly ux uy elbow 

showpage
