%!PS
%%BoundingBox: 0 0 1000.000000 1000.000000
%%EndComments

/imgw 1000.000000 def
/imgd 1000.000000 def

<<
    /PageSize [ imgw imgd ]
    /ImagingBBox null
>> setpagedevice

/mv { moveto } bind def
/ln { lineto } bind def

/fx 250 def
/fx 290 def
/fy 0 def
/rad 400 def

0 0 mv imgw 0 ln imgw imgd ln 0 imgd ln fill

imgw 2 div imgd 2 div translate

1 setlinejoin

% the outer circle
0 1 1 setrgbcolor 0 0 rad 0 360 arc stroke

/A fx fx mul fy fy mul add rad rad mul sub def

% the radials and bisectors
0 3 360 {

    /a exch def

    /B a cos fx mul a sin fy mul add def
    /l B B mul A sub sqrt B add neg def

    fx fy mv
    a cos l mul fx add
    a sin l mul fy add ln
    .2 setgray stroke

    a cos l mul 2 div fx add 90 a sub cos l 2 div mul sub
    a sin l mul 2 div fy add 90 a sub sin l 2 div mul add mv
    a cos l mul 2 div fx add 90 a sub cos l 2 div mul add
    a sin l mul 2 div fy add 90 a sub sin l 2 div mul sub ln
    .8 setgray stroke

} for

% centre and focus
1 1 0 setrgbcolor
fx fy 3 0 360 arc fill
0 0 3 0 360 arc fill

% the ellipse
/t rad rad mul fx fx mul fy fy mul add sub sqrt def
0 10 360 {
    /a exch def
    a cos rad mul fx add 2 div
    a sin t mul fy add 2 div
    a 0 eq { mv } { ln } ifelse
} for
1 0 1 setrgbcolor stroke
