%!PS
%%BoundingBox: 0 0 1000.000000 1000.000000
%%EndComments

/imgw 1000.000000 def
/imgd 1000.000000 def

<<
    /PageSize [ imgw imgd ]
    /ImagingBBox null
>> setpagedevice

/mv { moveto } bind def
/ln { lineto } bind def

0 0 mv
imgw 0 ln
imgw imgd ln
0 imgd ln
0 setgray fill

1 1 0 setrgbcolor

/polygon_ang 90 def
/delta_ang 10 def
/s 400 def

/ox 100 def
/oy 100 def

ox oy mv s ox add oy ln stroke

1 1 2 {
    /n exch def

    /a delta_ang n 1 sub polygon_ang mul add def
    /b delta_ang n polygon_ang mul add def
    /c delta_ang n 1 add polygon_ang mul add def

    /q 
        a sin c cos mul s mul a cos c sin mul s mul sub
        b sin c cos mul b cos c sin mul sub div
    def
    (q:) == q ==

    /p b cos q mul da cos s mul sub c cos div def
    (p:) == p ==

    ox oy mv
    ox da cos q mul add oy da sin q mul add ln
    stroke

    /ox ox da cos p mul add def
    /oy oy da sin p mul add def

} for
