%!PS
%%BoundingBox: 0 0 595 842
%%EndComments

/phi 5 sqrt 1 add 2 div def

/wid 400 def
/dep wid phi mul def

/xoff 100 def
/yoff 90 def

%xoff yoff moveto
%wid 0 rlineto
%0 dep rlineto
%wid neg 0 rlineto
%0 dep neg rlineto
%stroke

/e 0 def

/x1 xoff def
/y1 yoff def
/x2 xoff wid add def
/y2 yoff dep add def

/Arial-Bold findfont 12 scalefont setfont

0 1 20000 {

    4 mod /e exch def

    e 2 mod 0 eq {
        /_w x2 x1 sub abs def
        /_d y2 y1 sub abs def
        /y2 y1 _w 1 e sub mul add def
        /y1 y1 _d 1 e sub mul add def
%        x1 y2 moveto
%        x2 y2 lineto
    } {
        /_w y2 y1 sub abs def
        /_d x2 x1 sub abs def
        /x2 x1 _w 2 e sub mul add def
        /x1 x1 _d 2 e sub mul add def
%        x2 y1 moveto
%        x2 y2 lineto
    } ifelse

    x2 y2 _w 2 e sub 90 mul dup 90 add arc stroke

} for
