%!PS
%%BoundingBox: 0 0 1000 1000
%%EndComments

% Setup the display
<<
    /PageSize [ 1000 1000 ]
    /ImagingBBox null
>> setpagedevice

/pi 3.1415826 def
/phi 5 sqrt 1 add 2 div def

/sc 8 def
/pnts 3000 def

/show_spirals (no) def
/spiral_num 8 def

0 0 moveto
1000 0 lineto
1000 1000 lineto
0 1000 lineto
0 0 lineto
fill

500 500 translate

/disc {

    /_r exch def

    gsave

    translate

    0 2 360 {
        /_a exch def
        _a cos _r mul
        _a sin _r mul
        _a 0 eq { moveto } { lineto } ifelse
    } for
    fill

    grestore

} def

show_spirals (yes) eq {

    /spiral_x [ spiral_num { 0 } repeat ] def
    /spiral_y [ spiral_num { 0 } repeat ] def
    
    .3 setgray
    
    1 1 pnts {
    
        /num exch def
    
        /a 2 180 mul phi mul num mul def
        /r num sqrt def
    
        /x a sin r mul sc mul def
        /y a cos r mul sc mul def
    
        /idx num spiral_num mod def
    
        spiral_x idx get 0 ne {
            gsave
            spiral_x idx get spiral_y idx get moveto
            x y lineto
            stroke
            grestore
        } if
    
        spiral_x idx x put
        spiral_y idx y put
    
    } for
} if

0 0 1 0 setcmykcolor

1 1 pnts {

    /num exch def

    /a 2 180 mul phi mul num mul def
    /r num sqrt def

    a sin r mul sc mul
    a cos r mul sc mul
    3 disc

} for

showpage
