%!PS
%%BoundingBox: 0 0 1000 1000
%%EndComments

% Setup the display
<<
    /PageSize [ 1000 1000 ]
    /ImagingBBox null
>> setpagedevice

0 0 moveto
1000 0 lineto
1000 1000 lineto
0 1000  lineto
fill

/sz 250 def

/szh sz 3 sqrt mul 2 div def

/off 0 def

/doline {
    1 1 0 setrgbcolor
    gsave
    moveto
    lineto
    stroke
    grestore
} def

szh neg szh 1000 szh add {
    szh 2 div add
    /y exch def

    sz -2 div sz 1000 sz add {
        off add
        /x exch def

        /x1 x def
        /y1 y def

        /x2 x sz add def
        /y2 y def

        /x3 x sz 2 div add def
        /y3 y szh add def

        x1 y1 x2 y2 doline

        0 1 0 setrgbcolor
        gsave
        x1 y1 translate
        0 1 2 {
            gsave
            60 mul rotate
            0 1 540 {
                /a exch def
                /d sz 2 div a 540 div dup mul mul def
                a 180 add cos d mul
                a 180 add sin d mul
                a 0 eq { moveto } { lineto } ifelse
             } for
            stroke

            0 1 540 {
                /a exch def
                /d sz 2 div a 540 div dup mul mul def
                a 180 add cos d mul neg
                a 180 add sin d mul neg
                a 0 eq { moveto } { lineto } ifelse
            } for
            stroke
            grestore
        } for
        grestore

        x2 y2 x3 y3 doline
        x3 y3 x1 y1 doline
    } for

    /off sz 2 div off sub def

} for

