%!PS
%%BoundingBox: 0 0 595 842
%%EndComments

/page_wid 1000 def
/page_dep 1000 def

0 0 moveto
page_wid 0 lineto
page_wid page_dep lineto
0 page_dep lineto
0 0 lineto
fill

page_wid 2 div
page_dep 2 div
translate

/r 20 def
/c page_dep dup mul page_wid dup mul add sqrt r div 2 div cvi 4 add def

/hex {

    /yc exch def
    /xc exch def

    0 60 360 {

        /a exch def

        a cos r mul xc add
        a sin r mul yc add 
        a 0 eq { moveto } { lineto } ifelse
    } for

    stroke
} def

/screen {

    c neg 1 c {
        /yh exch def
        /y 30 cos r mul yh mul def
    
        c neg 1 c {
            /xh exch def
            /x r 3 mul xh mul yh 2 mod r mul 1.5 mul add def
    
            x y hex
        } for
    
    } for
} def

1 1 0 setrgbcolor
screen
0 0 moveto 30 rotate screen
