%!PS
%%BoundingBox: 0 0 1000 1000
%%EndComments

/imgw 1000 def
/imgd 1000 def

/rad 40 def
/v 3 sqrt rad mul def

<<
  /PageSize [ imgw imgd ]
  /ImagingBBox null
>> setpagedevice

/mv { moveto } bind def
/ln { lineto } bind def

%0 0 mv imgw 0 ln imgw imgd ln 0 imgd ln fill

/Arial-Bold findfont 14 scalefont setfont

1 setlinejoin
%1 1 0 setrgbcolor

/disc {

    /y exch def
    /x exch def

    0 2 360 {
        /a exch def
        x a cos rad mul add   
        y a sin rad mul add   
        a 0 eq { mv } { ln } ifelse
    } for

    stroke

} def

/m 0 def
-2000 v 2000 {

    /y exch def
    /m 1 m sub def
    
    -2000 rad 2 mul 2000 {

        /x exch def
        x rad m mul add y disc

    } for
} for 
