%!PS
%%BoundingBox: 0 0 1000 1000
%%EndComments

% Setup the display
<<
    /PageSize [ 1000 1000 ]
    /ImagingBBox null
>> setpagedevice

500 500 translate

-510 10 510 {
    /y exch def

    -510 10 510 {
        /x exch def

        x y moveto
        10 0 rlineto
        0 10 rlineto
        -10 0 rlineto
        0 -10 rlineto

        y x atan 360 div

    } for
} for
