%!PS

%% d1 = hF(x(t), t),
%% d2 = hF(x(t) + d1 / 2, t + h / 2),
%% d3 = hF(x(t) + d2 / 2, t + h / 2),
%% d4 = hF(x(t) + d3, t + h),
%% x(t + h) = x(t) + d1 / 6 + d2 / 3 + d3 / 3 + d4 / 6,

0 0 moveto
10000 0 lineto
10000 10000 lineto
0 10000 lineto
closepath fill

300 220 translate
.3 setlinewidth

/x 10 def
/y 30 def
/z 20 def

/r 28 def /s 8 def /b 8 3 div def
/r 28 def /s 15 def /b 8 3 div def
/r 40 def /s 15 def /b 8 3 div def

/sc 6 def
/gr 0.005 def
/lim 40000 def

/len 0 def

/xdef { exch def } bind def

/pt { % x y z pt x1 y1

   /zl xdef
   /yl xdef
   /xl xdef

   xl yl add sc mul 2 sqrt div
   xl zl add sc mul 2 sqrt div

} def

/lz {    % x y z lz nx ny nz 

   /orig_z xdef
   /orig_y xdef
   /orig_x xdef

   orig_y orig_x sub s mul             % x
   r orig_z sub orig_x mul orig_y sub  % y
   orig_x orig_y mul b orig_z mul sub  % z

} def

/rgb {

   /a exch 360 mul def

   a sin 
   a 120 add sin
   a 240 add sin
   setrgbcolor

} def

/rgb1 {

   /a exch 180 mul 90 add def

   /p .35 def

   a sin p mul 1 p sub add
   a 120 add sin p mul 1 p sub add
   a 240 add sin p mul 1 p sub add
   setrgbcolor

} def

0 1 lim {

   /i exch def

   /prev_x x def
   /prev_y y def
   /prev_z z def

   x y z lz
   gr mul /z1 xdef
   gr mul /y1 xdef
   gr mul /x1 xdef

   x x1 2 div add
   y y1 2 div add
   z z1 2 div add
   lz
   gr mul /z2 xdef
   gr mul /y2 xdef
   gr mul /x2 xdef

   x x2 2 div add
   y y2 2 div add
   z z2 2 div add
   lz
   gr mul /z3 xdef
   gr mul /y3 xdef
   gr mul /x3 xdef

   x x3 add
   y y3 add
   z z3 add
   lz
   gr mul /z4 xdef
   gr mul /y4 xdef
   gr mul /x4 xdef

   /dx x1 6 div x2 3 div add x3 3 div add x4 6 div add def
   /dy y1 6 div y2 3 div add y3 3 div add y4 6 div add def
   /dz z1 6 div z2 3 div add z3 3 div add z4 6 div add def

   /x x dx add def
   /y y dy add def
   /z z dz add def

   /len len
   prev_x x sub dup mul 
   prev_y y sub dup mul add
   prev_z z sub dup mul add
   sqrt
   add def

   %/cyc 500 def
   %len cvi cyc mod cyc div rgb

    1
    dx dup mul
    dy dup mul add
    dz dup mul add
    sqrt .85 mul
    sub
    rgb1

   prev_x prev_y prev_z pt moveto

   x y z pt lineto
   stroke

} for

showpage
