%!PS
%%BoundingBox: 0 0 595 842
%%EndComments

/sc .5 def
/sz 5 def

/v1 sz 3 sqrt mul 2 div def
/v2 sz sc mul def
/v3 sz 2 div sc mul def
/v4 v3 neg def
/v5 sz 3 sqrt mul 2 div sc mul def

300 425 translate

/_e 0 def

2 {
    
    -450 v1 450 {
    
        /_y exch def
    
        -450 sz 450 {
            _e add _y moveto
            v2 0 rlineto
            v4 v5 rlineto
            fill
        } for
    
        /_e sz 2 div _e sub def
    
    } for

    5 rotate

} repeat
