%!PS
%%BoundingBox: 0 0 595 842
%%EndComments

300 425 translate

/discs {

    5 3 200 {

        /_r exch def

        _r 0 moveto
        0 5 360 {

            /_a exch def
            _a cos _r mul
            _a sin _r mul
            lineto
        
        } for

        stroke

    } for

} def

-50 0 translate
discs
100 0 translate
discs
