%!PS
%%BoundingBox: 0 0 1000 1000
%%EndComments\n

<<
    /PageSize [ 1000 1000 ]
    /ImagingBBox null
>> setpagedevice

/mv { moveto } bind def
/ln { lineto } bind def

0 0 mv 1000 0 ln 1000 1000 ln 0 1000 ln fill

1 1 0 setrgbcolor

/ly 2.4 def
/uy 4.0 def

/lx 0 def
/ux 1 def

100 1 900 {

    /y exch def
    /r y 100 sub 800 div uy ly sub mul ly add def

    0 1 500 {

        pop

        /v rand 16#7fffffff div def
        
        0 1 100 {   % allow the value to settle
            pop
            /v r v mul 1 v sub mul def
        } for

        /x v 800 mul 100 add def

        x y mv
        x .5 add y lineto 
        x .5 add y .5 add lineto 
        x y .5 add lineto 
        x y lineto 
        fill
    } for
} for
