%!PS
%%BoundingBox: 0 0 1000 1000
%%EndComments

/imgw 1000 def
/imgd 1000 def

<<
    /PageSize [ imgw imgd ]
    /ImagingBBox null
>> setpagedevice

/mv { moveto } bind def
/ln { lineto } bind def

0 0 mv
imgw 0 ln
imgw imgd ln
0 imgd ln
0 setgray fill

1 1 0 setrgbcolor

/lx 100 def
/ly 100 def
/ux 700 def
/uy 700 def

/len ux lx sub dup mul uy ly sub dup mul add sqrt def

/line_max 1050 def
/num_max 500 def

lx ly mv ux uy ln stroke

/curr 0 def
/side 0 def

1 1 num_max {

    /n exch def

    /try curr n sub def
    try 1 lt
    currentdict try (     ) cvs cvn known or {
        /try curr n add def
    } if

    /cx ux lx sub curr mul line_max div lx add def
    /cy uy ly sub curr mul line_max div ly add def

    /tx ux lx sub try mul line_max div lx add def
    /ty uy ly sub try mul line_max div ly add def

    /r len n mul line_max div 2 div def

    n num_max div 2 mul 1 sub dup mul
    setgray
    cx tx add 2 div cy ty add 2 div r 45 side add 225 side add arc stroke

    /side 180 side sub def
    /curr try def

    curr (     ) cvs cvn 1 def
} for

