%!PS
%%BoundingBox: 0 0 595 842
%%EndComments

300 425 translate

/sz 2 def

2 { 
    1 srand
    2800 {
    
        /_x rand 16#7fffffff div 600 mul 300 sub def 
        /_y rand 16#7fffffff div 850 mul 425 sub def 
    
        _x _y moveto
        sz 0 rlineto
        0 sz rlineto
        sz neg 0 rlineto
        fill
    
    } repeat

    5 rotate
    1.05 dup scale
} repeat
