%!PS
%%BoundingBox: 0 0 1000 1000%%EndComments

    <<
        /PageSize [ 1000 1000 ]
        /ImagingBBox null
    >> setpagedevice

    0 0 moveto
    1000 0 lineto
    1000 1000 lineto
    0 1000 lineto
    0 0 lineto
    fill

    /sp_wid 800 def
    /sp_dep 200 def

    1000 sp_wid sub 2 div 700 translate

        0.578125 0 0.82421875 setrgbcolor
        0 0 moveto
        0 sp_dep lineto
        stroke
    
        0.575986328125 0 0.821845703125 setrgbcolor
        1 0 moveto
        1 sp_dep lineto
        stroke
    
        0.57384765625 0 0.81947265625 setrgbcolor
        2 0 moveto
        2 sp_dep lineto
        stroke
    
        0.571708984375 0 0.817099609375 setrgbcolor
        3 0 moveto
        3 sp_dep lineto
        stroke
    
        0.5695703125 0 0.8147265625 setrgbcolor
        4 0 moveto
        4 sp_dep lineto
        stroke
    
        0.567431640625 0 0.812353515625 setrgbcolor
        5 0 moveto
        5 sp_dep lineto
        stroke
    
        0.56529296875 0 0.80998046875 setrgbcolor
        6 0 moveto
        6 sp_dep lineto
        stroke
    
        0.563154296875 0 0.807607421875 setrgbcolor
        7 0 moveto
        7 sp_dep lineto
        stroke
    
        0.561015625 0 0.805234375 setrgbcolor
        8 0 moveto
        8 sp_dep lineto
        stroke
    
        0.558876953125 0 0.802861328125 setrgbcolor
        9 0 moveto
        9 sp_dep lineto
        stroke
    
        0.55673828125 0 0.80048828125 setrgbcolor
        10 0 moveto
        10 sp_dep lineto
        stroke
    
        0.554599609375 0 0.798115234375 setrgbcolor
        11 0 moveto
        11 sp_dep lineto
        stroke
    
        0.5524609375 0 0.7957421875 setrgbcolor
        12 0 moveto
        12 sp_dep lineto
        stroke
    
        0.550322265625 0 0.793369140625 setrgbcolor
        13 0 moveto
        13 sp_dep lineto
        stroke
    
        0.54818359375 0 0.79099609375 setrgbcolor
        14 0 moveto
        14 sp_dep lineto
        stroke
    
        0.546044921875 0 0.788623046875 setrgbcolor
        15 0 moveto
        15 sp_dep lineto
        stroke
    
        0.54390625 0 0.78625 setrgbcolor
        16 0 moveto
        16 sp_dep lineto
        stroke
    
        0.541767578125 0 0.783876953125 setrgbcolor
        17 0 moveto
        17 sp_dep lineto
        stroke
    
        0.53962890625 0 0.78150390625 setrgbcolor
        18 0 moveto
        18 sp_dep lineto
        stroke
    
        0.537490234375 0 0.779130859375 setrgbcolor
        19 0 moveto
        19 sp_dep lineto
        stroke
    
        0.5353515625 0 0.7767578125 setrgbcolor
        20 0 moveto
        20 sp_dep lineto
        stroke
    
        0.533212890625 0 0.774384765625 setrgbcolor
        21 0 moveto
        21 sp_dep lineto
        stroke
    
        0.53107421875 0 0.77201171875 setrgbcolor
        22 0 moveto
        22 sp_dep lineto
        stroke
    
        0.528935546875 0 0.769638671875 setrgbcolor
        23 0 moveto
        23 sp_dep lineto
        stroke
    
        0.526796875 0 0.767265625 setrgbcolor
        24 0 moveto
        24 sp_dep lineto
        stroke
    
        0.524658203125 0 0.764892578125 setrgbcolor
        25 0 moveto
        25 sp_dep lineto
        stroke
    
        0.52251953125 0 0.76251953125 setrgbcolor
        26 0 moveto
        26 sp_dep lineto
        stroke
    
        0.520380859375 0 0.760146484375 setrgbcolor
        27 0 moveto
        27 sp_dep lineto
        stroke
    
        0.5182421875 0 0.7577734375 setrgbcolor
        28 0 moveto
        28 sp_dep lineto
        stroke
    
        0.516103515625 0 0.755400390625 setrgbcolor
        29 0 moveto
        29 sp_dep lineto
        stroke
    
        0.51396484375 0 0.75302734375 setrgbcolor
        30 0 moveto
        30 sp_dep lineto
        stroke
    
        0.511826171875 0 0.750654296875 setrgbcolor
        31 0 moveto
        31 sp_dep lineto
        stroke
    
        0.5096875 0 0.74828125 setrgbcolor
        32 0 moveto
        32 sp_dep lineto
        stroke
    
        0.507548828125 0 0.745908203125 setrgbcolor
        33 0 moveto
        33 sp_dep lineto
        stroke
    
        0.50541015625 0 0.74353515625 setrgbcolor
        34 0 moveto
        34 sp_dep lineto
        stroke
    
        0.503271484375 0 0.741162109375 setrgbcolor
        35 0 moveto
        35 sp_dep lineto
        stroke
    
        0.5011328125 0 0.7387890625 setrgbcolor
        36 0 moveto
        36 sp_dep lineto
        stroke
    
        0.498994140625 0 0.736416015625 setrgbcolor
        37 0 moveto
        37 sp_dep lineto
        stroke
    
        0.49685546875 0 0.73404296875 setrgbcolor
        38 0 moveto
        38 sp_dep lineto
        stroke
    
        0.494716796875 0 0.731669921875 setrgbcolor
        39 0 moveto
        39 sp_dep lineto
        stroke
    
        0.492578125 0 0.729296875 setrgbcolor
        40 0 moveto
        40 sp_dep lineto
        stroke
    
        0.490439453125 0 0.726923828125 setrgbcolor
        41 0 moveto
        41 sp_dep lineto
        stroke
    
        0.48830078125 0 0.72455078125 setrgbcolor
        42 0 moveto
        42 sp_dep lineto
        stroke
    
        0.486162109375 0 0.722177734375 setrgbcolor
        43 0 moveto
        43 sp_dep lineto
        stroke
    
        0.4840234375 0 0.7198046875 setrgbcolor
        44 0 moveto
        44 sp_dep lineto
        stroke
    
        0.481884765625 0 0.717431640625 setrgbcolor
        45 0 moveto
        45 sp_dep lineto
        stroke
    
        0.47974609375 0 0.71505859375 setrgbcolor
        46 0 moveto
        46 sp_dep lineto
        stroke
    
        0.477607421875 0 0.712685546875 setrgbcolor
        47 0 moveto
        47 sp_dep lineto
        stroke
    
        0.47546875 0 0.7103125 setrgbcolor
        48 0 moveto
        48 sp_dep lineto
        stroke
    
        0.473330078125 0 0.707939453125 setrgbcolor
        49 0 moveto
        49 sp_dep lineto
        stroke
    
        0.47119140625 0 0.70556640625 setrgbcolor
        50 0 moveto
        50 sp_dep lineto
        stroke
    
        0.469052734375 0 0.703193359375 setrgbcolor
        51 0 moveto
        51 sp_dep lineto
        stroke
    
        0.4669140625 0 0.7008203125 setrgbcolor
        52 0 moveto
        52 sp_dep lineto
        stroke
    
        0.464775390625 0 0.698447265625 setrgbcolor
        53 0 moveto
        53 sp_dep lineto
        stroke
    
        0.46263671875 0 0.69607421875 setrgbcolor
        54 0 moveto
        54 sp_dep lineto
        stroke
    
        0.460498046875 0 0.693701171875 setrgbcolor
        55 0 moveto
        55 sp_dep lineto
        stroke
    
        0.458359375 0 0.691328125 setrgbcolor
        56 0 moveto
        56 sp_dep lineto
        stroke
    
        0.456220703125 0 0.688955078125 setrgbcolor
        57 0 moveto
        57 sp_dep lineto
        stroke
    
        0.45408203125 0 0.68658203125 setrgbcolor
        58 0 moveto
        58 sp_dep lineto
        stroke
    
        0.451943359375 0 0.684208984375 setrgbcolor
        59 0 moveto
        59 sp_dep lineto
        stroke
    
        0.4498046875 0 0.6818359375 setrgbcolor
        60 0 moveto
        60 sp_dep lineto
        stroke
    
        0.447666015625 0 0.679462890625 setrgbcolor
        61 0 moveto
        61 sp_dep lineto
        stroke
    
        0.44552734375 0 0.67708984375 setrgbcolor
        62 0 moveto
        62 sp_dep lineto
        stroke
    
        0.443388671875 0 0.674716796875 setrgbcolor
        63 0 moveto
        63 sp_dep lineto
        stroke
    
        0.44125 0 0.67234375 setrgbcolor
        64 0 moveto
        64 sp_dep lineto
        stroke
    
        0.439111328125 0 0.669970703125 setrgbcolor
        65 0 moveto
        65 sp_dep lineto
        stroke
    
        0.43697265625 0 0.66759765625 setrgbcolor
        66 0 moveto
        66 sp_dep lineto
        stroke
    
        0.434833984375 0 0.665224609375 setrgbcolor
        67 0 moveto
        67 sp_dep lineto
        stroke
    
        0.4326953125 0 0.6628515625 setrgbcolor
        68 0 moveto
        68 sp_dep lineto
        stroke
    
        0.430556640625 0 0.660478515625 setrgbcolor
        69 0 moveto
        69 sp_dep lineto
        stroke
    
        0.42841796875 0 0.65810546875 setrgbcolor
        70 0 moveto
        70 sp_dep lineto
        stroke
    
        0.426279296875 0 0.655732421875 setrgbcolor
        71 0 moveto
        71 sp_dep lineto
        stroke
    
        0.424140625 0 0.653359375 setrgbcolor
        72 0 moveto
        72 sp_dep lineto
        stroke
    
        0.422001953125 0 0.650986328125 setrgbcolor
        73 0 moveto
        73 sp_dep lineto
        stroke
    
        0.41986328125 0 0.64861328125 setrgbcolor
        74 0 moveto
        74 sp_dep lineto
        stroke
    
        0.417724609375 0 0.646240234375 setrgbcolor
        75 0 moveto
        75 sp_dep lineto
        stroke
    
        0.4155859375 0 0.6438671875 setrgbcolor
        76 0 moveto
        76 sp_dep lineto
        stroke
    
        0.413447265625 0 0.641494140625 setrgbcolor
        77 0 moveto
        77 sp_dep lineto
        stroke
    
        0.41130859375 0 0.63912109375 setrgbcolor
        78 0 moveto
        78 sp_dep lineto
        stroke
    
        0.409169921875 0 0.636748046875 setrgbcolor
        79 0 moveto
        79 sp_dep lineto
        stroke
    
        0.40703125 0 0.634375 setrgbcolor
        80 0 moveto
        80 sp_dep lineto
        stroke
    
        0.404892578125 0 0.632001953125 setrgbcolor
        81 0 moveto
        81 sp_dep lineto
        stroke
    
        0.40275390625 0 0.62962890625 setrgbcolor
        82 0 moveto
        82 sp_dep lineto
        stroke
    
        0.400615234375 0 0.627255859375 setrgbcolor
        83 0 moveto
        83 sp_dep lineto
        stroke
    
        0.3984765625 0 0.6248828125 setrgbcolor
        84 0 moveto
        84 sp_dep lineto
        stroke
    
        0.396337890625 0 0.622509765625 setrgbcolor
        85 0 moveto
        85 sp_dep lineto
        stroke
    
        0.39419921875 0 0.62013671875 setrgbcolor
        86 0 moveto
        86 sp_dep lineto
        stroke
    
        0.392060546875 0 0.617763671875 setrgbcolor
        87 0 moveto
        87 sp_dep lineto
        stroke
    
        0.389921875 0 0.615390625 setrgbcolor
        88 0 moveto
        88 sp_dep lineto
        stroke
    
        0.387783203125 0 0.613017578125 setrgbcolor
        89 0 moveto
        89 sp_dep lineto
        stroke
    
        0.38564453125 0 0.61064453125 setrgbcolor
        90 0 moveto
        90 sp_dep lineto
        stroke
    
        0.383505859375 0 0.608271484375 setrgbcolor
        91 0 moveto
        91 sp_dep lineto
        stroke
    
        0.3813671875 0 0.6058984375 setrgbcolor
        92 0 moveto
        92 sp_dep lineto
        stroke
    
        0.379228515625 0 0.603525390625 setrgbcolor
        93 0 moveto
        93 sp_dep lineto
        stroke
    
        0.37708984375 0 0.60115234375 setrgbcolor
        94 0 moveto
        94 sp_dep lineto
        stroke
    
        0.374951171875 0 0.598779296875 setrgbcolor
        95 0 moveto
        95 sp_dep lineto
        stroke
    
        0.3728125 0 0.59640625 setrgbcolor
        96 0 moveto
        96 sp_dep lineto
        stroke
    
        0.370673828125 0 0.594033203125 setrgbcolor
        97 0 moveto
        97 sp_dep lineto
        stroke
    
        0.36853515625 0 0.59166015625 setrgbcolor
        98 0 moveto
        98 sp_dep lineto
        stroke
    
        0.366396484375 0 0.589287109375 setrgbcolor
        99 0 moveto
        99 sp_dep lineto
        stroke
    
        0.3642578125 0 0.5869140625 setrgbcolor
        100 0 moveto
        100 sp_dep lineto
        stroke
    
        0.362119140625 0 0.584541015625 setrgbcolor
        101 0 moveto
        101 sp_dep lineto
        stroke
    
        0.35998046875 0 0.58216796875 setrgbcolor
        102 0 moveto
        102 sp_dep lineto
        stroke
    
        0.357841796875 0 0.579794921875 setrgbcolor
        103 0 moveto
        103 sp_dep lineto
        stroke
    
        0.355703125 0 0.577421875 setrgbcolor
        104 0 moveto
        104 sp_dep lineto
        stroke
    
        0.353564453125 0 0.575048828125 setrgbcolor
        105 0 moveto
        105 sp_dep lineto
        stroke
    
        0.35142578125 0 0.57267578125 setrgbcolor
        106 0 moveto
        106 sp_dep lineto
        stroke
    
        0.349287109375 0 0.570302734375 setrgbcolor
        107 0 moveto
        107 sp_dep lineto
        stroke
    
        0.3471484375 0 0.5679296875 setrgbcolor
        108 0 moveto
        108 sp_dep lineto
        stroke
    
        0.345009765625 0 0.565556640625 setrgbcolor
        109 0 moveto
        109 sp_dep lineto
        stroke
    
        0.34287109375 0 0.56318359375 setrgbcolor
        110 0 moveto
        110 sp_dep lineto
        stroke
    
        0.340732421875 0 0.560810546875 setrgbcolor
        111 0 moveto
        111 sp_dep lineto
        stroke
    
        0.33859375 0 0.5584375 setrgbcolor
        112 0 moveto
        112 sp_dep lineto
        stroke
    
        0.336455078125 0 0.556064453125 setrgbcolor
        113 0 moveto
        113 sp_dep lineto
        stroke
    
        0.33431640625 0 0.55369140625 setrgbcolor
        114 0 moveto
        114 sp_dep lineto
        stroke
    
        0.332177734375 0 0.551318359375 setrgbcolor
        115 0 moveto
        115 sp_dep lineto
        stroke
    
        0.3300390625 0 0.5489453125 setrgbcolor
        116 0 moveto
        116 sp_dep lineto
        stroke
    
        0.327900390625 0 0.546572265625 setrgbcolor
        117 0 moveto
        117 sp_dep lineto
        stroke
    
        0.32576171875 0 0.54419921875 setrgbcolor
        118 0 moveto
        118 sp_dep lineto
        stroke
    
        0.323623046875 0 0.541826171875 setrgbcolor
        119 0 moveto
        119 sp_dep lineto
        stroke
    
        0.321484375 0 0.539453125 setrgbcolor
        120 0 moveto
        120 sp_dep lineto
        stroke
    
        0.319345703125 0 0.537080078125 setrgbcolor
        121 0 moveto
        121 sp_dep lineto
        stroke
    
        0.31720703125 0 0.53470703125 setrgbcolor
        122 0 moveto
        122 sp_dep lineto
        stroke
    
        0.315068359375 0 0.532333984375 setrgbcolor
        123 0 moveto
        123 sp_dep lineto
        stroke
    
        0.3129296875 0 0.5299609375 setrgbcolor
        124 0 moveto
        124 sp_dep lineto
        stroke
    
        0.310791015625 0 0.527587890625 setrgbcolor
        125 0 moveto
        125 sp_dep lineto
        stroke
    
        0.30865234375 0 0.52521484375 setrgbcolor
        126 0 moveto
        126 sp_dep lineto
        stroke
    
        0.306513671875 0 0.522841796875 setrgbcolor
        127 0 moveto
        127 sp_dep lineto
        stroke
    
        0.304375 0 0.52046875 setrgbcolor
        128 0 moveto
        128 sp_dep lineto
        stroke
    
        0.302236328125 0 0.518095703125 setrgbcolor
        129 0 moveto
        129 sp_dep lineto
        stroke
    
        0.30009765625 0 0.51572265625 setrgbcolor
        130 0 moveto
        130 sp_dep lineto
        stroke
    
        0.297958984375 0 0.513349609375 setrgbcolor
        131 0 moveto
        131 sp_dep lineto
        stroke
    
        0.2958203125 0 0.5109765625 setrgbcolor
        132 0 moveto
        132 sp_dep lineto
        stroke
    
        0.293681640625 0 0.508603515625 setrgbcolor
        133 0 moveto
        133 sp_dep lineto
        stroke
    
        0.29150390625 0 0.51025390625 setrgbcolor
        134 0 moveto
        134 sp_dep lineto
        stroke
    
        0.289306640625 0 0.513916015625 setrgbcolor
        135 0 moveto
        135 sp_dep lineto
        stroke
    
        0.287109375 0 0.517578125 setrgbcolor
        136 0 moveto
        136 sp_dep lineto
        stroke
    
        0.284912109375 0 0.521240234375 setrgbcolor
        137 0 moveto
        137 sp_dep lineto
        stroke
    
        0.28271484375 0 0.52490234375 setrgbcolor
        138 0 moveto
        138 sp_dep lineto
        stroke
    
        0.280517578125 0 0.528564453125 setrgbcolor
        139 0 moveto
        139 sp_dep lineto
        stroke
    
        0.2783203125 0 0.5322265625 setrgbcolor
        140 0 moveto
        140 sp_dep lineto
        stroke
    
        0.276123046875 0 0.535888671875 setrgbcolor
        141 0 moveto
        141 sp_dep lineto
        stroke
    
        0.27392578125 0 0.53955078125 setrgbcolor
        142 0 moveto
        142 sp_dep lineto
        stroke
    
        0.271728515625 0 0.543212890625 setrgbcolor
        143 0 moveto
        143 sp_dep lineto
        stroke
    
        0.26953125 0 0.546875 setrgbcolor
        144 0 moveto
        144 sp_dep lineto
        stroke
    
        0.267333984375 0 0.550537109375 setrgbcolor
        145 0 moveto
        145 sp_dep lineto
        stroke
    
        0.26513671875 0 0.55419921875 setrgbcolor
        146 0 moveto
        146 sp_dep lineto
        stroke
    
        0.262939453125 0 0.557861328125 setrgbcolor
        147 0 moveto
        147 sp_dep lineto
        stroke
    
        0.2607421875 0 0.5615234375 setrgbcolor
        148 0 moveto
        148 sp_dep lineto
        stroke
    
        0.258544921875 0 0.565185546875 setrgbcolor
        149 0 moveto
        149 sp_dep lineto
        stroke
    
        0.25634765625 0 0.56884765625 setrgbcolor
        150 0 moveto
        150 sp_dep lineto
        stroke
    
        0.254150390625 0 0.572509765625 setrgbcolor
        151 0 moveto
        151 sp_dep lineto
        stroke
    
        0.251953125 0 0.576171875 setrgbcolor
        152 0 moveto
        152 sp_dep lineto
        stroke
    
        0.249755859375 0 0.579833984375 setrgbcolor
        153 0 moveto
        153 sp_dep lineto
        stroke
    
        0.24755859375 0 0.58349609375 setrgbcolor
        154 0 moveto
        154 sp_dep lineto
        stroke
    
        0.245361328125 0 0.587158203125 setrgbcolor
        155 0 moveto
        155 sp_dep lineto
        stroke
    
        0.2431640625 0 0.5908203125 setrgbcolor
        156 0 moveto
        156 sp_dep lineto
        stroke
    
        0.240966796875 0 0.594482421875 setrgbcolor
        157 0 moveto
        157 sp_dep lineto
        stroke
    
        0.23876953125 0 0.59814453125 setrgbcolor
        158 0 moveto
        158 sp_dep lineto
        stroke
    
        0.236572265625 0 0.601806640625 setrgbcolor
        159 0 moveto
        159 sp_dep lineto
        stroke
    
        0.234375 0 0.60546875 setrgbcolor
        160 0 moveto
        160 sp_dep lineto
        stroke
    
        0.232177734375 0 0.609130859375 setrgbcolor
        161 0 moveto
        161 sp_dep lineto
        stroke
    
        0.22998046875 0 0.61279296875 setrgbcolor
        162 0 moveto
        162 sp_dep lineto
        stroke
    
        0.227783203125 0 0.616455078125 setrgbcolor
        163 0 moveto
        163 sp_dep lineto
        stroke
    
        0.2255859375 0 0.6201171875 setrgbcolor
        164 0 moveto
        164 sp_dep lineto
        stroke
    
        0.223388671875 0 0.623779296875 setrgbcolor
        165 0 moveto
        165 sp_dep lineto
        stroke
    
        0.22119140625 0 0.62744140625 setrgbcolor
        166 0 moveto
        166 sp_dep lineto
        stroke
    
        0.218994140625 0 0.631103515625 setrgbcolor
        167 0 moveto
        167 sp_dep lineto
        stroke
    
        0.216796875 0 0.634765625 setrgbcolor
        168 0 moveto
        168 sp_dep lineto
        stroke
    
        0.214599609375 0 0.638427734375 setrgbcolor
        169 0 moveto
        169 sp_dep lineto
        stroke
    
        0.21240234375 0 0.64208984375 setrgbcolor
        170 0 moveto
        170 sp_dep lineto
        stroke
    
        0.210205078125 0 0.645751953125 setrgbcolor
        171 0 moveto
        171 sp_dep lineto
        stroke
    
        0.2080078125 0 0.6494140625 setrgbcolor
        172 0 moveto
        172 sp_dep lineto
        stroke
    
        0.205810546875 0 0.653076171875 setrgbcolor
        173 0 moveto
        173 sp_dep lineto
        stroke
    
        0.20361328125 0 0.65673828125 setrgbcolor
        174 0 moveto
        174 sp_dep lineto
        stroke
    
        0.201416015625 0 0.660400390625 setrgbcolor
        175 0 moveto
        175 sp_dep lineto
        stroke
    
        0.19921875 0 0.6640625 setrgbcolor
        176 0 moveto
        176 sp_dep lineto
        stroke
    
        0.197021484375 0 0.667724609375 setrgbcolor
        177 0 moveto
        177 sp_dep lineto
        stroke
    
        0.19482421875 0 0.67138671875 setrgbcolor
        178 0 moveto
        178 sp_dep lineto
        stroke
    
        0.192626953125 0 0.675048828125 setrgbcolor
        179 0 moveto
        179 sp_dep lineto
        stroke
    
        0.1904296875 0 0.6787109375 setrgbcolor
        180 0 moveto
        180 sp_dep lineto
        stroke
    
        0.188232421875 0 0.682373046875 setrgbcolor
        181 0 moveto
        181 sp_dep lineto
        stroke
    
        0.18603515625 0 0.68603515625 setrgbcolor
        182 0 moveto
        182 sp_dep lineto
        stroke
    
        0.183837890625 0 0.689697265625 setrgbcolor
        183 0 moveto
        183 sp_dep lineto
        stroke
    
        0.181640625 0 0.693359375 setrgbcolor
        184 0 moveto
        184 sp_dep lineto
        stroke
    
        0.179443359375 0 0.697021484375 setrgbcolor
        185 0 moveto
        185 sp_dep lineto
        stroke
    
        0.17724609375 0 0.70068359375 setrgbcolor
        186 0 moveto
        186 sp_dep lineto
        stroke
    
        0.175048828125 0 0.704345703125 setrgbcolor
        187 0 moveto
        187 sp_dep lineto
        stroke
    
        0.1728515625 0 0.7080078125 setrgbcolor
        188 0 moveto
        188 sp_dep lineto
        stroke
    
        0.170654296875 0 0.711669921875 setrgbcolor
        189 0 moveto
        189 sp_dep lineto
        stroke
    
        0.16845703125 0 0.71533203125 setrgbcolor
        190 0 moveto
        190 sp_dep lineto
        stroke
    
        0.166259765625 0 0.718994140625 setrgbcolor
        191 0 moveto
        191 sp_dep lineto
        stroke
    
        0.1640625 0 0.72265625 setrgbcolor
        192 0 moveto
        192 sp_dep lineto
        stroke
    
        0.161865234375 0 0.726318359375 setrgbcolor
        193 0 moveto
        193 sp_dep lineto
        stroke
    
        0.15966796875 0 0.72998046875 setrgbcolor
        194 0 moveto
        194 sp_dep lineto
        stroke
    
        0.157470703125 0 0.733642578125 setrgbcolor
        195 0 moveto
        195 sp_dep lineto
        stroke
    
        0.1552734375 0 0.7373046875 setrgbcolor
        196 0 moveto
        196 sp_dep lineto
        stroke
    
        0.153076171875 0 0.740966796875 setrgbcolor
        197 0 moveto
        197 sp_dep lineto
        stroke
    
        0.15087890625 0 0.74462890625 setrgbcolor
        198 0 moveto
        198 sp_dep lineto
        stroke
    
        0.148681640625 0 0.748291015625 setrgbcolor
        199 0 moveto
        199 sp_dep lineto
        stroke
    
        0.146484375 0 0.751953125 setrgbcolor
        200 0 moveto
        200 sp_dep lineto
        stroke
    
        0.144287109375 0 0.755615234375 setrgbcolor
        201 0 moveto
        201 sp_dep lineto
        stroke
    
        0.14208984375 0 0.75927734375 setrgbcolor
        202 0 moveto
        202 sp_dep lineto
        stroke
    
        0.139892578125 0 0.762939453125 setrgbcolor
        203 0 moveto
        203 sp_dep lineto
        stroke
    
        0.1376953125 0 0.7666015625 setrgbcolor
        204 0 moveto
        204 sp_dep lineto
        stroke
    
        0.135498046875 0 0.770263671875 setrgbcolor
        205 0 moveto
        205 sp_dep lineto
        stroke
    
        0.13330078125 0 0.77392578125 setrgbcolor
        206 0 moveto
        206 sp_dep lineto
        stroke
    
        0.131103515625 0 0.777587890625 setrgbcolor
        207 0 moveto
        207 sp_dep lineto
        stroke
    
        0.12890625 0 0.78125 setrgbcolor
        208 0 moveto
        208 sp_dep lineto
        stroke
    
        0.126708984375 0 0.784912109375 setrgbcolor
        209 0 moveto
        209 sp_dep lineto
        stroke
    
        0.12451171875 0 0.78857421875 setrgbcolor
        210 0 moveto
        210 sp_dep lineto
        stroke
    
        0.122314453125 0 0.792236328125 setrgbcolor
        211 0 moveto
        211 sp_dep lineto
        stroke
    
        0.1201171875 0 0.7958984375 setrgbcolor
        212 0 moveto
        212 sp_dep lineto
        stroke
    
        0.117919921875 0 0.799560546875 setrgbcolor
        213 0 moveto
        213 sp_dep lineto
        stroke
    
        0.11572265625 0 0.80322265625 setrgbcolor
        214 0 moveto
        214 sp_dep lineto
        stroke
    
        0.113525390625 0 0.806884765625 setrgbcolor
        215 0 moveto
        215 sp_dep lineto
        stroke
    
        0.111328125 0 0.810546875 setrgbcolor
        216 0 moveto
        216 sp_dep lineto
        stroke
    
        0.109130859375 0 0.814208984375 setrgbcolor
        217 0 moveto
        217 sp_dep lineto
        stroke
    
        0.10693359375 0 0.81787109375 setrgbcolor
        218 0 moveto
        218 sp_dep lineto
        stroke
    
        0.104736328125 0 0.821533203125 setrgbcolor
        219 0 moveto
        219 sp_dep lineto
        stroke
    
        0.1025390625 0 0.8251953125 setrgbcolor
        220 0 moveto
        220 sp_dep lineto
        stroke
    
        0.100341796875 0 0.828857421875 setrgbcolor
        221 0 moveto
        221 sp_dep lineto
        stroke
    
        0.09814453125 0 0.83251953125 setrgbcolor
        222 0 moveto
        222 sp_dep lineto
        stroke
    
        0.095947265625 0 0.836181640625 setrgbcolor
        223 0 moveto
        223 sp_dep lineto
        stroke
    
        0.09375 0 0.83984375 setrgbcolor
        224 0 moveto
        224 sp_dep lineto
        stroke
    
        0.091552734375 0 0.843505859375 setrgbcolor
        225 0 moveto
        225 sp_dep lineto
        stroke
    
        0.0893554687500001 0 0.84716796875 setrgbcolor
        226 0 moveto
        226 sp_dep lineto
        stroke
    
        0.087158203125 0 0.850830078125 setrgbcolor
        227 0 moveto
        227 sp_dep lineto
        stroke
    
        0.0849609375000001 0 0.8544921875 setrgbcolor
        228 0 moveto
        228 sp_dep lineto
        stroke
    
        0.082763671875 0 0.858154296875 setrgbcolor
        229 0 moveto
        229 sp_dep lineto
        stroke
    
        0.0805664062500001 0 0.86181640625 setrgbcolor
        230 0 moveto
        230 sp_dep lineto
        stroke
    
        0.0783691406250001 0 0.865478515625 setrgbcolor
        231 0 moveto
        231 sp_dep lineto
        stroke
    
        0.0761718750000001 0 0.869140625 setrgbcolor
        232 0 moveto
        232 sp_dep lineto
        stroke
    
        0.0739746093750001 0 0.872802734375 setrgbcolor
        233 0 moveto
        233 sp_dep lineto
        stroke
    
        0.0717773437500001 0 0.87646484375 setrgbcolor
        234 0 moveto
        234 sp_dep lineto
        stroke
    
        0.0695800781250001 0 0.880126953125 setrgbcolor
        235 0 moveto
        235 sp_dep lineto
        stroke
    
        0.0673828125000001 0 0.8837890625 setrgbcolor
        236 0 moveto
        236 sp_dep lineto
        stroke
    
        0.0651855468750001 0 0.887451171875 setrgbcolor
        237 0 moveto
        237 sp_dep lineto
        stroke
    
        0.0629882812500001 0 0.89111328125 setrgbcolor
        238 0 moveto
        238 sp_dep lineto
        stroke
    
        0.0607910156250001 0 0.894775390625 setrgbcolor
        239 0 moveto
        239 sp_dep lineto
        stroke
    
        0.0585937500000001 0 0.8984375 setrgbcolor
        240 0 moveto
        240 sp_dep lineto
        stroke
    
        0.0563964843750001 0 0.902099609375 setrgbcolor
        241 0 moveto
        241 sp_dep lineto
        stroke
    
        0.0541992187500001 0 0.90576171875 setrgbcolor
        242 0 moveto
        242 sp_dep lineto
        stroke
    
        0.052001953125 0 0.909423828125 setrgbcolor
        243 0 moveto
        243 sp_dep lineto
        stroke
    
        0.0498046875 0 0.9130859375 setrgbcolor
        244 0 moveto
        244 sp_dep lineto
        stroke
    
        0.047607421875 0 0.916748046875 setrgbcolor
        245 0 moveto
        245 sp_dep lineto
        stroke
    
        0.04541015625 0 0.92041015625 setrgbcolor
        246 0 moveto
        246 sp_dep lineto
        stroke
    
        0.043212890625 0 0.924072265625 setrgbcolor
        247 0 moveto
        247 sp_dep lineto
        stroke
    
        0.041015625 0 0.927734375 setrgbcolor
        248 0 moveto
        248 sp_dep lineto
        stroke
    
        0.0388183593749999 0 0.931396484375 setrgbcolor
        249 0 moveto
        249 sp_dep lineto
        stroke
    
        0.03662109375 0 0.93505859375 setrgbcolor
        250 0 moveto
        250 sp_dep lineto
        stroke
    
        0.0344238281250001 0 0.938720703125 setrgbcolor
        251 0 moveto
        251 sp_dep lineto
        stroke
    
        0.0322265625 0 0.9423828125 setrgbcolor
        252 0 moveto
        252 sp_dep lineto
        stroke
    
        0.0300292968750001 0 0.946044921875 setrgbcolor
        253 0 moveto
        253 sp_dep lineto
        stroke
    
        0.02783203125 0 0.94970703125 setrgbcolor
        254 0 moveto
        254 sp_dep lineto
        stroke
    
        0.0256347656250001 0 0.953369140625 setrgbcolor
        255 0 moveto
        255 sp_dep lineto
        stroke
    
        0.0234375 0 0.95703125 setrgbcolor
        256 0 moveto
        256 sp_dep lineto
        stroke
    
        0.021240234375 0 0.960693359375 setrgbcolor
        257 0 moveto
        257 sp_dep lineto
        stroke
    
        0.01904296875 0 0.96435546875 setrgbcolor
        258 0 moveto
        258 sp_dep lineto
        stroke
    
        0.016845703125 0 0.968017578125 setrgbcolor
        259 0 moveto
        259 sp_dep lineto
        stroke
    
        0.0146484375 0 0.9716796875 setrgbcolor
        260 0 moveto
        260 sp_dep lineto
        stroke
    
        0.012451171875 0 0.975341796875 setrgbcolor
        261 0 moveto
        261 sp_dep lineto
        stroke
    
        0.01025390625 0 0.97900390625 setrgbcolor
        262 0 moveto
        262 sp_dep lineto
        stroke
    
        0.008056640625 0 0.982666015625 setrgbcolor
        263 0 moveto
        263 sp_dep lineto
        stroke
    
        0.005859375 0 0.986328125 setrgbcolor
        264 0 moveto
        264 sp_dep lineto
        stroke
    
        0.003662109375 0 0.989990234375 setrgbcolor
        265 0 moveto
        265 sp_dep lineto
        stroke
    
        0.00146484375 0 0.99365234375 setrgbcolor
        266 0 moveto
        266 sp_dep lineto
        stroke
    
        0 0.00249023437499986 0.993603515625 setrgbcolor
        267 0 moveto
        267 sp_dep lineto
        stroke
    
        0 0.00996093749999986 0.9861328125 setrgbcolor
        268 0 moveto
        268 sp_dep lineto
        stroke
    
        0 0.0174316406249999 0.978662109375 setrgbcolor
        269 0 moveto
        269 sp_dep lineto
        stroke
    
        0 0.0249023437499999 0.97119140625 setrgbcolor
        270 0 moveto
        270 sp_dep lineto
        stroke
    
        0 0.0323730468749999 0.963720703125 setrgbcolor
        271 0 moveto
        271 sp_dep lineto
        stroke
    
        0 0.0398437499999999 0.95625 setrgbcolor
        272 0 moveto
        272 sp_dep lineto
        stroke
    
        0 0.0473144531249999 0.948779296875 setrgbcolor
        273 0 moveto
        273 sp_dep lineto
        stroke
    
        0 0.0547851562499999 0.94130859375 setrgbcolor
        274 0 moveto
        274 sp_dep lineto
        stroke
    
        0 0.0622558593749998 0.933837890625 setrgbcolor
        275 0 moveto
        275 sp_dep lineto
        stroke
    
        0 0.0697265624999999 0.9263671875 setrgbcolor
        276 0 moveto
        276 sp_dep lineto
        stroke
    
        0 0.0771972656249998 0.918896484375 setrgbcolor
        277 0 moveto
        277 sp_dep lineto
        stroke
    
        0 0.0846679687499999 0.91142578125 setrgbcolor
        278 0 moveto
        278 sp_dep lineto
        stroke
    
        0 0.0921386718749998 0.903955078125 setrgbcolor
        279 0 moveto
        279 sp_dep lineto
        stroke
    
        0 0.0996093749999998 0.896484375 setrgbcolor
        280 0 moveto
        280 sp_dep lineto
        stroke
    
        0 0.107080078125 0.889013671875 setrgbcolor
        281 0 moveto
        281 sp_dep lineto
        stroke
    
        0 0.11455078125 0.88154296875 setrgbcolor
        282 0 moveto
        282 sp_dep lineto
        stroke
    
        0 0.122021484375 0.874072265625 setrgbcolor
        283 0 moveto
        283 sp_dep lineto
        stroke
    
        0 0.1294921875 0.8666015625 setrgbcolor
        284 0 moveto
        284 sp_dep lineto
        stroke
    
        0 0.136962890625 0.859130859375 setrgbcolor
        285 0 moveto
        285 sp_dep lineto
        stroke
    
        0 0.14443359375 0.85166015625 setrgbcolor
        286 0 moveto
        286 sp_dep lineto
        stroke
    
        0 0.151904296875 0.844189453125 setrgbcolor
        287 0 moveto
        287 sp_dep lineto
        stroke
    
        0 0.159375 0.83671875 setrgbcolor
        288 0 moveto
        288 sp_dep lineto
        stroke
    
        0 0.166845703125 0.829248046875 setrgbcolor
        289 0 moveto
        289 sp_dep lineto
        stroke
    
        0 0.17431640625 0.82177734375 setrgbcolor
        290 0 moveto
        290 sp_dep lineto
        stroke
    
        0 0.181787109375 0.814306640625 setrgbcolor
        291 0 moveto
        291 sp_dep lineto
        stroke
    
        0 0.1892578125 0.8068359375 setrgbcolor
        292 0 moveto
        292 sp_dep lineto
        stroke
    
        0 0.196728515625 0.799365234375 setrgbcolor
        293 0 moveto
        293 sp_dep lineto
        stroke
    
        0 0.20419921875 0.79189453125 setrgbcolor
        294 0 moveto
        294 sp_dep lineto
        stroke
    
        0 0.211669921875 0.784423828125 setrgbcolor
        295 0 moveto
        295 sp_dep lineto
        stroke
    
        0 0.219140625 0.776953125 setrgbcolor
        296 0 moveto
        296 sp_dep lineto
        stroke
    
        0 0.226611328125 0.769482421875 setrgbcolor
        297 0 moveto
        297 sp_dep lineto
        stroke
    
        0 0.23408203125 0.76201171875 setrgbcolor
        298 0 moveto
        298 sp_dep lineto
        stroke
    
        0 0.241552734375 0.754541015625 setrgbcolor
        299 0 moveto
        299 sp_dep lineto
        stroke
    
        0 0.2490234375 0.7470703125 setrgbcolor
        300 0 moveto
        300 sp_dep lineto
        stroke
    
        0 0.256494140625 0.739599609375 setrgbcolor
        301 0 moveto
        301 sp_dep lineto
        stroke
    
        0 0.26396484375 0.73212890625 setrgbcolor
        302 0 moveto
        302 sp_dep lineto
        stroke
    
        0 0.271435546875 0.724658203125 setrgbcolor
        303 0 moveto
        303 sp_dep lineto
        stroke
    
        0 0.27890625 0.7171875 setrgbcolor
        304 0 moveto
        304 sp_dep lineto
        stroke
    
        0 0.286376953125 0.709716796875 setrgbcolor
        305 0 moveto
        305 sp_dep lineto
        stroke
    
        0 0.29384765625 0.70224609375 setrgbcolor
        306 0 moveto
        306 sp_dep lineto
        stroke
    
        0 0.301318359375 0.694775390625 setrgbcolor
        307 0 moveto
        307 sp_dep lineto
        stroke
    
        0 0.3087890625 0.6873046875 setrgbcolor
        308 0 moveto
        308 sp_dep lineto
        stroke
    
        0 0.316259765625 0.679833984375 setrgbcolor
        309 0 moveto
        309 sp_dep lineto
        stroke
    
        0 0.32373046875 0.67236328125 setrgbcolor
        310 0 moveto
        310 sp_dep lineto
        stroke
    
        0 0.331201171875 0.664892578125 setrgbcolor
        311 0 moveto
        311 sp_dep lineto
        stroke
    
        0 0.338671875 0.657421875 setrgbcolor
        312 0 moveto
        312 sp_dep lineto
        stroke
    
        0 0.346142578125 0.649951171875 setrgbcolor
        313 0 moveto
        313 sp_dep lineto
        stroke
    
        0 0.35361328125 0.64248046875 setrgbcolor
        314 0 moveto
        314 sp_dep lineto
        stroke
    
        0 0.361083984375 0.635009765625 setrgbcolor
        315 0 moveto
        315 sp_dep lineto
        stroke
    
        0 0.3685546875 0.6275390625 setrgbcolor
        316 0 moveto
        316 sp_dep lineto
        stroke
    
        0 0.376025390625 0.620068359375 setrgbcolor
        317 0 moveto
        317 sp_dep lineto
        stroke
    
        0 0.38349609375 0.61259765625 setrgbcolor
        318 0 moveto
        318 sp_dep lineto
        stroke
    
        0 0.390966796875 0.605126953125 setrgbcolor
        319 0 moveto
        319 sp_dep lineto
        stroke
    
        0 0.3984375 0.59765625 setrgbcolor
        320 0 moveto
        320 sp_dep lineto
        stroke
    
        0 0.405908203125 0.590185546875 setrgbcolor
        321 0 moveto
        321 sp_dep lineto
        stroke
    
        0 0.41337890625 0.58271484375 setrgbcolor
        322 0 moveto
        322 sp_dep lineto
        stroke
    
        0 0.420849609375 0.575244140625 setrgbcolor
        323 0 moveto
        323 sp_dep lineto
        stroke
    
        0 0.4283203125 0.5677734375 setrgbcolor
        324 0 moveto
        324 sp_dep lineto
        stroke
    
        0 0.435791015625 0.560302734375 setrgbcolor
        325 0 moveto
        325 sp_dep lineto
        stroke
    
        0 0.44326171875 0.55283203125 setrgbcolor
        326 0 moveto
        326 sp_dep lineto
        stroke
    
        0 0.450732421875 0.545361328125 setrgbcolor
        327 0 moveto
        327 sp_dep lineto
        stroke
    
        0 0.458203125 0.537890625 setrgbcolor
        328 0 moveto
        328 sp_dep lineto
        stroke
    
        0 0.465673828125 0.530419921875 setrgbcolor
        329 0 moveto
        329 sp_dep lineto
        stroke
    
        0 0.47314453125 0.52294921875 setrgbcolor
        330 0 moveto
        330 sp_dep lineto
        stroke
    
        0 0.480615234375 0.515478515625 setrgbcolor
        331 0 moveto
        331 sp_dep lineto
        stroke
    
        0 0.4880859375 0.5080078125 setrgbcolor
        332 0 moveto
        332 sp_dep lineto
        stroke
    
        0 0.495556640625 0.500537109375 setrgbcolor
        333 0 moveto
        333 sp_dep lineto
        stroke
    
        0 0.50302734375 0.49306640625 setrgbcolor
        334 0 moveto
        334 sp_dep lineto
        stroke
    
        0 0.510498046875 0.485595703125 setrgbcolor
        335 0 moveto
        335 sp_dep lineto
        stroke
    
        0 0.51796875 0.478125 setrgbcolor
        336 0 moveto
        336 sp_dep lineto
        stroke
    
        0 0.525439453125 0.470654296875 setrgbcolor
        337 0 moveto
        337 sp_dep lineto
        stroke
    
        0 0.53291015625 0.46318359375 setrgbcolor
        338 0 moveto
        338 sp_dep lineto
        stroke
    
        0 0.540380859375 0.455712890625 setrgbcolor
        339 0 moveto
        339 sp_dep lineto
        stroke
    
        0 0.5478515625 0.4482421875 setrgbcolor
        340 0 moveto
        340 sp_dep lineto
        stroke
    
        0 0.555322265625 0.440771484375 setrgbcolor
        341 0 moveto
        341 sp_dep lineto
        stroke
    
        0 0.56279296875 0.43330078125 setrgbcolor
        342 0 moveto
        342 sp_dep lineto
        stroke
    
        0 0.570263671875 0.425830078125 setrgbcolor
        343 0 moveto
        343 sp_dep lineto
        stroke
    
        0 0.577734375 0.418359375 setrgbcolor
        344 0 moveto
        344 sp_dep lineto
        stroke
    
        0 0.585205078125 0.410888671875 setrgbcolor
        345 0 moveto
        345 sp_dep lineto
        stroke
    
        0 0.59267578125 0.40341796875 setrgbcolor
        346 0 moveto
        346 sp_dep lineto
        stroke
    
        0 0.600146484375 0.395947265625 setrgbcolor
        347 0 moveto
        347 sp_dep lineto
        stroke
    
        0 0.6076171875 0.3884765625 setrgbcolor
        348 0 moveto
        348 sp_dep lineto
        stroke
    
        0 0.615087890625 0.381005859375 setrgbcolor
        349 0 moveto
        349 sp_dep lineto
        stroke
    
        0 0.62255859375 0.37353515625 setrgbcolor
        350 0 moveto
        350 sp_dep lineto
        stroke
    
        0 0.630029296875 0.366064453125 setrgbcolor
        351 0 moveto
        351 sp_dep lineto
        stroke
    
        0 0.6375 0.35859375 setrgbcolor
        352 0 moveto
        352 sp_dep lineto
        stroke
    
        0 0.644970703125 0.351123046875 setrgbcolor
        353 0 moveto
        353 sp_dep lineto
        stroke
    
        0 0.65244140625 0.34365234375 setrgbcolor
        354 0 moveto
        354 sp_dep lineto
        stroke
    
        0 0.659912109375 0.336181640625 setrgbcolor
        355 0 moveto
        355 sp_dep lineto
        stroke
    
        0 0.6673828125 0.3287109375 setrgbcolor
        356 0 moveto
        356 sp_dep lineto
        stroke
    
        0 0.674853515625 0.321240234375 setrgbcolor
        357 0 moveto
        357 sp_dep lineto
        stroke
    
        0 0.68232421875 0.31376953125 setrgbcolor
        358 0 moveto
        358 sp_dep lineto
        stroke
    
        0 0.689794921875 0.306298828125 setrgbcolor
        359 0 moveto
        359 sp_dep lineto
        stroke
    
        0 0.697265625 0.298828125 setrgbcolor
        360 0 moveto
        360 sp_dep lineto
        stroke
    
        0 0.704736328125 0.291357421875 setrgbcolor
        361 0 moveto
        361 sp_dep lineto
        stroke
    
        0 0.71220703125 0.28388671875 setrgbcolor
        362 0 moveto
        362 sp_dep lineto
        stroke
    
        0 0.719677734375 0.276416015625 setrgbcolor
        363 0 moveto
        363 sp_dep lineto
        stroke
    
        0 0.7271484375 0.2689453125 setrgbcolor
        364 0 moveto
        364 sp_dep lineto
        stroke
    
        0 0.734619140625 0.261474609375 setrgbcolor
        365 0 moveto
        365 sp_dep lineto
        stroke
    
        0 0.74208984375 0.25400390625 setrgbcolor
        366 0 moveto
        366 sp_dep lineto
        stroke
    
        0 0.749560546875 0.246533203125 setrgbcolor
        367 0 moveto
        367 sp_dep lineto
        stroke
    
        0 0.75703125 0.2390625 setrgbcolor
        368 0 moveto
        368 sp_dep lineto
        stroke
    
        0 0.764501953125 0.231591796875 setrgbcolor
        369 0 moveto
        369 sp_dep lineto
        stroke
    
        0 0.77197265625 0.22412109375 setrgbcolor
        370 0 moveto
        370 sp_dep lineto
        stroke
    
        0 0.779443359375 0.216650390625 setrgbcolor
        371 0 moveto
        371 sp_dep lineto
        stroke
    
        0 0.7869140625 0.2091796875 setrgbcolor
        372 0 moveto
        372 sp_dep lineto
        stroke
    
        0 0.794384765625 0.201708984375 setrgbcolor
        373 0 moveto
        373 sp_dep lineto
        stroke
    
        0 0.80185546875 0.19423828125 setrgbcolor
        374 0 moveto
        374 sp_dep lineto
        stroke
    
        0 0.809326171875 0.186767578125 setrgbcolor
        375 0 moveto
        375 sp_dep lineto
        stroke
    
        0 0.816796875 0.179296875 setrgbcolor
        376 0 moveto
        376 sp_dep lineto
        stroke
    
        0 0.824267578125 0.171826171875 setrgbcolor
        377 0 moveto
        377 sp_dep lineto
        stroke
    
        0 0.83173828125 0.16435546875 setrgbcolor
        378 0 moveto
        378 sp_dep lineto
        stroke
    
        0 0.839208984375 0.156884765625 setrgbcolor
        379 0 moveto
        379 sp_dep lineto
        stroke
    
        0 0.8466796875 0.1494140625 setrgbcolor
        380 0 moveto
        380 sp_dep lineto
        stroke
    
        0 0.854150390625 0.141943359375 setrgbcolor
        381 0 moveto
        381 sp_dep lineto
        stroke
    
        0 0.86162109375 0.13447265625 setrgbcolor
        382 0 moveto
        382 sp_dep lineto
        stroke
    
        0 0.869091796875 0.127001953125 setrgbcolor
        383 0 moveto
        383 sp_dep lineto
        stroke
    
        0 0.8765625 0.11953125 setrgbcolor
        384 0 moveto
        384 sp_dep lineto
        stroke
    
        0 0.884033203125 0.112060546875 setrgbcolor
        385 0 moveto
        385 sp_dep lineto
        stroke
    
        0 0.89150390625 0.10458984375 setrgbcolor
        386 0 moveto
        386 sp_dep lineto
        stroke
    
        0 0.898974609375 0.0971191406250002 setrgbcolor
        387 0 moveto
        387 sp_dep lineto
        stroke
    
        0 0.9064453125 0.0896484375000002 setrgbcolor
        388 0 moveto
        388 sp_dep lineto
        stroke
    
        0 0.913916015625 0.0821777343750002 setrgbcolor
        389 0 moveto
        389 sp_dep lineto
        stroke
    
        0 0.92138671875 0.0747070312500002 setrgbcolor
        390 0 moveto
        390 sp_dep lineto
        stroke
    
        0 0.928857421875 0.0672363281250001 setrgbcolor
        391 0 moveto
        391 sp_dep lineto
        stroke
    
        0 0.936328125 0.0597656250000002 setrgbcolor
        392 0 moveto
        392 sp_dep lineto
        stroke
    
        0 0.943798828125 0.0522949218750002 setrgbcolor
        393 0 moveto
        393 sp_dep lineto
        stroke
    
        0 0.95126953125 0.0448242187500002 setrgbcolor
        394 0 moveto
        394 sp_dep lineto
        stroke
    
        0 0.958740234375 0.0373535156250002 setrgbcolor
        395 0 moveto
        395 sp_dep lineto
        stroke
    
        0 0.9662109375 0.0298828125000002 setrgbcolor
        396 0 moveto
        396 sp_dep lineto
        stroke
    
        0 0.973681640625 0.0224121093750003 setrgbcolor
        397 0 moveto
        397 sp_dep lineto
        stroke
    
        0 0.98115234375 0.0149414062500003 setrgbcolor
        398 0 moveto
        398 sp_dep lineto
        stroke
    
        0 0.988623046875 0.00747070312500031 setrgbcolor
        399 0 moveto
        399 sp_dep lineto
        stroke
    
        0 0.99609375 0 setrgbcolor
        400 0 moveto
        400 sp_dep lineto
        stroke
    
        0.007470703125 0.99609375 0 setrgbcolor
        401 0 moveto
        401 sp_dep lineto
        stroke
    
        0.0149414062499996 0.99609375 0 setrgbcolor
        402 0 moveto
        402 sp_dep lineto
        stroke
    
        0.022412109375 0.99609375 0 setrgbcolor
        403 0 moveto
        403 sp_dep lineto
        stroke
    
        0.0298828125 0.99609375 0 setrgbcolor
        404 0 moveto
        404 sp_dep lineto
        stroke
    
        0.037353515625 0.99609375 0 setrgbcolor
        405 0 moveto
        405 sp_dep lineto
        stroke
    
        0.0448242187499996 0.99609375 0 setrgbcolor
        406 0 moveto
        406 sp_dep lineto
        stroke
    
        0.052294921875 0.99609375 0 setrgbcolor
        407 0 moveto
        407 sp_dep lineto
        stroke
    
        0.059765625 0.99609375 0 setrgbcolor
        408 0 moveto
        408 sp_dep lineto
        stroke
    
        0.067236328125 0.99609375 0 setrgbcolor
        409 0 moveto
        409 sp_dep lineto
        stroke
    
        0.0747070312499996 0.99609375 0 setrgbcolor
        410 0 moveto
        410 sp_dep lineto
        stroke
    
        0.0821777343750004 0.99609375 0 setrgbcolor
        411 0 moveto
        411 sp_dep lineto
        stroke
    
        0.0896484375 0.99609375 0 setrgbcolor
        412 0 moveto
        412 sp_dep lineto
        stroke
    
        0.097119140625 0.99609375 0 setrgbcolor
        413 0 moveto
        413 sp_dep lineto
        stroke
    
        0.10458984375 0.99609375 0 setrgbcolor
        414 0 moveto
        414 sp_dep lineto
        stroke
    
        0.112060546875 0.99609375 0 setrgbcolor
        415 0 moveto
        415 sp_dep lineto
        stroke
    
        0.11953125 0.99609375 0 setrgbcolor
        416 0 moveto
        416 sp_dep lineto
        stroke
    
        0.127001953125 0.99609375 0 setrgbcolor
        417 0 moveto
        417 sp_dep lineto
        stroke
    
        0.13447265625 0.99609375 0 setrgbcolor
        418 0 moveto
        418 sp_dep lineto
        stroke
    
        0.141943359375 0.99609375 0 setrgbcolor
        419 0 moveto
        419 sp_dep lineto
        stroke
    
        0.1494140625 0.99609375 0 setrgbcolor
        420 0 moveto
        420 sp_dep lineto
        stroke
    
        0.156884765625 0.99609375 0 setrgbcolor
        421 0 moveto
        421 sp_dep lineto
        stroke
    
        0.16435546875 0.99609375 0 setrgbcolor
        422 0 moveto
        422 sp_dep lineto
        stroke
    
        0.171826171875 0.99609375 0 setrgbcolor
        423 0 moveto
        423 sp_dep lineto
        stroke
    
        0.179296875 0.99609375 0 setrgbcolor
        424 0 moveto
        424 sp_dep lineto
        stroke
    
        0.186767578125 0.99609375 0 setrgbcolor
        425 0 moveto
        425 sp_dep lineto
        stroke
    
        0.19423828125 0.99609375 0 setrgbcolor
        426 0 moveto
        426 sp_dep lineto
        stroke
    
        0.201708984375 0.99609375 0 setrgbcolor
        427 0 moveto
        427 sp_dep lineto
        stroke
    
        0.2091796875 0.99609375 0 setrgbcolor
        428 0 moveto
        428 sp_dep lineto
        stroke
    
        0.216650390625 0.99609375 0 setrgbcolor
        429 0 moveto
        429 sp_dep lineto
        stroke
    
        0.22412109375 0.99609375 0 setrgbcolor
        430 0 moveto
        430 sp_dep lineto
        stroke
    
        0.231591796875 0.99609375 0 setrgbcolor
        431 0 moveto
        431 sp_dep lineto
        stroke
    
        0.2390625 0.99609375 0 setrgbcolor
        432 0 moveto
        432 sp_dep lineto
        stroke
    
        0.246533203125 0.99609375 0 setrgbcolor
        433 0 moveto
        433 sp_dep lineto
        stroke
    
        0.25400390625 0.99609375 0 setrgbcolor
        434 0 moveto
        434 sp_dep lineto
        stroke
    
        0.261474609375 0.99609375 0 setrgbcolor
        435 0 moveto
        435 sp_dep lineto
        stroke
    
        0.2689453125 0.99609375 0 setrgbcolor
        436 0 moveto
        436 sp_dep lineto
        stroke
    
        0.276416015625 0.99609375 0 setrgbcolor
        437 0 moveto
        437 sp_dep lineto
        stroke
    
        0.28388671875 0.99609375 0 setrgbcolor
        438 0 moveto
        438 sp_dep lineto
        stroke
    
        0.291357421875 0.99609375 0 setrgbcolor
        439 0 moveto
        439 sp_dep lineto
        stroke
    
        0.298828125 0.99609375 0 setrgbcolor
        440 0 moveto
        440 sp_dep lineto
        stroke
    
        0.306298828125 0.99609375 0 setrgbcolor
        441 0 moveto
        441 sp_dep lineto
        stroke
    
        0.31376953125 0.99609375 0 setrgbcolor
        442 0 moveto
        442 sp_dep lineto
        stroke
    
        0.321240234375 0.99609375 0 setrgbcolor
        443 0 moveto
        443 sp_dep lineto
        stroke
    
        0.3287109375 0.99609375 0 setrgbcolor
        444 0 moveto
        444 sp_dep lineto
        stroke
    
        0.336181640625 0.99609375 0 setrgbcolor
        445 0 moveto
        445 sp_dep lineto
        stroke
    
        0.34365234375 0.99609375 0 setrgbcolor
        446 0 moveto
        446 sp_dep lineto
        stroke
    
        0.351123046875 0.99609375 0 setrgbcolor
        447 0 moveto
        447 sp_dep lineto
        stroke
    
        0.35859375 0.99609375 0 setrgbcolor
        448 0 moveto
        448 sp_dep lineto
        stroke
    
        0.366064453125 0.99609375 0 setrgbcolor
        449 0 moveto
        449 sp_dep lineto
        stroke
    
        0.37353515625 0.99609375 0 setrgbcolor
        450 0 moveto
        450 sp_dep lineto
        stroke
    
        0.381005859375 0.99609375 0 setrgbcolor
        451 0 moveto
        451 sp_dep lineto
        stroke
    
        0.3884765625 0.99609375 0 setrgbcolor
        452 0 moveto
        452 sp_dep lineto
        stroke
    
        0.395947265625 0.99609375 0 setrgbcolor
        453 0 moveto
        453 sp_dep lineto
        stroke
    
        0.40341796875 0.99609375 0 setrgbcolor
        454 0 moveto
        454 sp_dep lineto
        stroke
    
        0.410888671875 0.99609375 0 setrgbcolor
        455 0 moveto
        455 sp_dep lineto
        stroke
    
        0.418359375 0.99609375 0 setrgbcolor
        456 0 moveto
        456 sp_dep lineto
        stroke
    
        0.425830078125 0.99609375 0 setrgbcolor
        457 0 moveto
        457 sp_dep lineto
        stroke
    
        0.43330078125 0.99609375 0 setrgbcolor
        458 0 moveto
        458 sp_dep lineto
        stroke
    
        0.440771484375 0.99609375 0 setrgbcolor
        459 0 moveto
        459 sp_dep lineto
        stroke
    
        0.4482421875 0.99609375 0 setrgbcolor
        460 0 moveto
        460 sp_dep lineto
        stroke
    
        0.455712890625 0.99609375 0 setrgbcolor
        461 0 moveto
        461 sp_dep lineto
        stroke
    
        0.46318359375 0.99609375 0 setrgbcolor
        462 0 moveto
        462 sp_dep lineto
        stroke
    
        0.470654296875 0.99609375 0 setrgbcolor
        463 0 moveto
        463 sp_dep lineto
        stroke
    
        0.478125 0.99609375 0 setrgbcolor
        464 0 moveto
        464 sp_dep lineto
        stroke
    
        0.485595703125 0.99609375 0 setrgbcolor
        465 0 moveto
        465 sp_dep lineto
        stroke
    
        0.49306640625 0.99609375 0 setrgbcolor
        466 0 moveto
        466 sp_dep lineto
        stroke
    
        0.500537109375 0.99609375 0 setrgbcolor
        467 0 moveto
        467 sp_dep lineto
        stroke
    
        0.5080078125 0.99609375 0 setrgbcolor
        468 0 moveto
        468 sp_dep lineto
        stroke
    
        0.515478515625 0.99609375 0 setrgbcolor
        469 0 moveto
        469 sp_dep lineto
        stroke
    
        0.52294921875 0.99609375 0 setrgbcolor
        470 0 moveto
        470 sp_dep lineto
        stroke
    
        0.530419921875 0.99609375 0 setrgbcolor
        471 0 moveto
        471 sp_dep lineto
        stroke
    
        0.537890625 0.99609375 0 setrgbcolor
        472 0 moveto
        472 sp_dep lineto
        stroke
    
        0.545361328125 0.99609375 0 setrgbcolor
        473 0 moveto
        473 sp_dep lineto
        stroke
    
        0.55283203125 0.99609375 0 setrgbcolor
        474 0 moveto
        474 sp_dep lineto
        stroke
    
        0.560302734375 0.99609375 0 setrgbcolor
        475 0 moveto
        475 sp_dep lineto
        stroke
    
        0.5677734375 0.99609375 0 setrgbcolor
        476 0 moveto
        476 sp_dep lineto
        stroke
    
        0.575244140625 0.99609375 0 setrgbcolor
        477 0 moveto
        477 sp_dep lineto
        stroke
    
        0.58271484375 0.99609375 0 setrgbcolor
        478 0 moveto
        478 sp_dep lineto
        stroke
    
        0.590185546875 0.99609375 0 setrgbcolor
        479 0 moveto
        479 sp_dep lineto
        stroke
    
        0.59765625 0.99609375 0 setrgbcolor
        480 0 moveto
        480 sp_dep lineto
        stroke
    
        0.605126953125 0.99609375 0 setrgbcolor
        481 0 moveto
        481 sp_dep lineto
        stroke
    
        0.61259765625 0.99609375 0 setrgbcolor
        482 0 moveto
        482 sp_dep lineto
        stroke
    
        0.620068359375 0.99609375 0 setrgbcolor
        483 0 moveto
        483 sp_dep lineto
        stroke
    
        0.6275390625 0.99609375 0 setrgbcolor
        484 0 moveto
        484 sp_dep lineto
        stroke
    
        0.635009765625 0.99609375 0 setrgbcolor
        485 0 moveto
        485 sp_dep lineto
        stroke
    
        0.64248046875 0.99609375 0 setrgbcolor
        486 0 moveto
        486 sp_dep lineto
        stroke
    
        0.649951171875 0.99609375 0 setrgbcolor
        487 0 moveto
        487 sp_dep lineto
        stroke
    
        0.657421875 0.99609375 0 setrgbcolor
        488 0 moveto
        488 sp_dep lineto
        stroke
    
        0.664892578125 0.99609375 0 setrgbcolor
        489 0 moveto
        489 sp_dep lineto
        stroke
    
        0.67236328125 0.99609375 0 setrgbcolor
        490 0 moveto
        490 sp_dep lineto
        stroke
    
        0.679833984375 0.99609375 0 setrgbcolor
        491 0 moveto
        491 sp_dep lineto
        stroke
    
        0.6873046875 0.99609375 0 setrgbcolor
        492 0 moveto
        492 sp_dep lineto
        stroke
    
        0.694775390625 0.99609375 0 setrgbcolor
        493 0 moveto
        493 sp_dep lineto
        stroke
    
        0.70224609375 0.99609375 0 setrgbcolor
        494 0 moveto
        494 sp_dep lineto
        stroke
    
        0.709716796875 0.99609375 0 setrgbcolor
        495 0 moveto
        495 sp_dep lineto
        stroke
    
        0.7171875 0.99609375 0 setrgbcolor
        496 0 moveto
        496 sp_dep lineto
        stroke
    
        0.724658203125 0.99609375 0 setrgbcolor
        497 0 moveto
        497 sp_dep lineto
        stroke
    
        0.73212890625 0.99609375 0 setrgbcolor
        498 0 moveto
        498 sp_dep lineto
        stroke
    
        0.739599609375 0.99609375 0 setrgbcolor
        499 0 moveto
        499 sp_dep lineto
        stroke
    
        0.7470703125 0.99609375 0 setrgbcolor
        500 0 moveto
        500 sp_dep lineto
        stroke
    
        0.754541015625 0.99609375 0 setrgbcolor
        501 0 moveto
        501 sp_dep lineto
        stroke
    
        0.76201171875 0.99609375 0 setrgbcolor
        502 0 moveto
        502 sp_dep lineto
        stroke
    
        0.769482421875 0.99609375 0 setrgbcolor
        503 0 moveto
        503 sp_dep lineto
        stroke
    
        0.776953125 0.99609375 0 setrgbcolor
        504 0 moveto
        504 sp_dep lineto
        stroke
    
        0.784423828125 0.99609375 0 setrgbcolor
        505 0 moveto
        505 sp_dep lineto
        stroke
    
        0.79189453125 0.99609375 0 setrgbcolor
        506 0 moveto
        506 sp_dep lineto
        stroke
    
        0.799365234375 0.99609375 0 setrgbcolor
        507 0 moveto
        507 sp_dep lineto
        stroke
    
        0.8068359375 0.99609375 0 setrgbcolor
        508 0 moveto
        508 sp_dep lineto
        stroke
    
        0.814306640625 0.99609375 0 setrgbcolor
        509 0 moveto
        509 sp_dep lineto
        stroke
    
        0.82177734375 0.99609375 0 setrgbcolor
        510 0 moveto
        510 sp_dep lineto
        stroke
    
        0.829248046875 0.99609375 0 setrgbcolor
        511 0 moveto
        511 sp_dep lineto
        stroke
    
        0.83671875 0.99609375 0 setrgbcolor
        512 0 moveto
        512 sp_dep lineto
        stroke
    
        0.844189453125 0.99609375 0 setrgbcolor
        513 0 moveto
        513 sp_dep lineto
        stroke
    
        0.85166015625 0.99609375 0 setrgbcolor
        514 0 moveto
        514 sp_dep lineto
        stroke
    
        0.859130859375 0.99609375 0 setrgbcolor
        515 0 moveto
        515 sp_dep lineto
        stroke
    
        0.8666015625 0.99609375 0 setrgbcolor
        516 0 moveto
        516 sp_dep lineto
        stroke
    
        0.874072265625 0.99609375 0 setrgbcolor
        517 0 moveto
        517 sp_dep lineto
        stroke
    
        0.88154296875 0.99609375 0 setrgbcolor
        518 0 moveto
        518 sp_dep lineto
        stroke
    
        0.889013671875 0.99609375 0 setrgbcolor
        519 0 moveto
        519 sp_dep lineto
        stroke
    
        0.896484375 0.99609375 0 setrgbcolor
        520 0 moveto
        520 sp_dep lineto
        stroke
    
        0.903955078125 0.99609375 0 setrgbcolor
        521 0 moveto
        521 sp_dep lineto
        stroke
    
        0.91142578125 0.99609375 0 setrgbcolor
        522 0 moveto
        522 sp_dep lineto
        stroke
    
        0.918896484375 0.99609375 0 setrgbcolor
        523 0 moveto
        523 sp_dep lineto
        stroke
    
        0.9263671875 0.99609375 0 setrgbcolor
        524 0 moveto
        524 sp_dep lineto
        stroke
    
        0.933837890625 0.99609375 0 setrgbcolor
        525 0 moveto
        525 sp_dep lineto
        stroke
    
        0.94130859375 0.99609375 0 setrgbcolor
        526 0 moveto
        526 sp_dep lineto
        stroke
    
        0.948779296875 0.99609375 0 setrgbcolor
        527 0 moveto
        527 sp_dep lineto
        stroke
    
        0.95625 0.99609375 0 setrgbcolor
        528 0 moveto
        528 sp_dep lineto
        stroke
    
        0.963720703125 0.99609375 0 setrgbcolor
        529 0 moveto
        529 sp_dep lineto
        stroke
    
        0.97119140625 0.99609375 0 setrgbcolor
        530 0 moveto
        530 sp_dep lineto
        stroke
    
        0.978662109375 0.99609375 0 setrgbcolor
        531 0 moveto
        531 sp_dep lineto
        stroke
    
        0.9861328125 0.99609375 0 setrgbcolor
        532 0 moveto
        532 sp_dep lineto
        stroke
    
        0.993603515625 0.99609375 0 setrgbcolor
        533 0 moveto
        533 sp_dep lineto
        stroke
    
        0.99609375 0.99359375 0 setrgbcolor
        534 0 moveto
        534 sp_dep lineto
        stroke
    
        0.99609375 0.98984375 0 setrgbcolor
        535 0 moveto
        535 sp_dep lineto
        stroke
    
        0.99609375 0.98609375 0 setrgbcolor
        536 0 moveto
        536 sp_dep lineto
        stroke
    
        0.99609375 0.98234375 0 setrgbcolor
        537 0 moveto
        537 sp_dep lineto
        stroke
    
        0.99609375 0.97859375 0 setrgbcolor
        538 0 moveto
        538 sp_dep lineto
        stroke
    
        0.99609375 0.97484375 0 setrgbcolor
        539 0 moveto
        539 sp_dep lineto
        stroke
    
        0.99609375 0.97109375 0 setrgbcolor
        540 0 moveto
        540 sp_dep lineto
        stroke
    
        0.99609375 0.96734375 0 setrgbcolor
        541 0 moveto
        541 sp_dep lineto
        stroke
    
        0.99609375 0.96359375 0 setrgbcolor
        542 0 moveto
        542 sp_dep lineto
        stroke
    
        0.99609375 0.95984375 0 setrgbcolor
        543 0 moveto
        543 sp_dep lineto
        stroke
    
        0.99609375 0.95609375 0 setrgbcolor
        544 0 moveto
        544 sp_dep lineto
        stroke
    
        0.99609375 0.95234375 0 setrgbcolor
        545 0 moveto
        545 sp_dep lineto
        stroke
    
        0.99609375 0.94859375 0 setrgbcolor
        546 0 moveto
        546 sp_dep lineto
        stroke
    
        0.99609375 0.94484375 0 setrgbcolor
        547 0 moveto
        547 sp_dep lineto
        stroke
    
        0.99609375 0.94109375 0 setrgbcolor
        548 0 moveto
        548 sp_dep lineto
        stroke
    
        0.99609375 0.93734375 0 setrgbcolor
        549 0 moveto
        549 sp_dep lineto
        stroke
    
        0.99609375 0.93359375 0 setrgbcolor
        550 0 moveto
        550 sp_dep lineto
        stroke
    
        0.99609375 0.92984375 0 setrgbcolor
        551 0 moveto
        551 sp_dep lineto
        stroke
    
        0.99609375 0.92609375 0 setrgbcolor
        552 0 moveto
        552 sp_dep lineto
        stroke
    
        0.99609375 0.92234375 0 setrgbcolor
        553 0 moveto
        553 sp_dep lineto
        stroke
    
        0.99609375 0.91859375 0 setrgbcolor
        554 0 moveto
        554 sp_dep lineto
        stroke
    
        0.99609375 0.91484375 0 setrgbcolor
        555 0 moveto
        555 sp_dep lineto
        stroke
    
        0.99609375 0.91109375 0 setrgbcolor
        556 0 moveto
        556 sp_dep lineto
        stroke
    
        0.99609375 0.90734375 0 setrgbcolor
        557 0 moveto
        557 sp_dep lineto
        stroke
    
        0.99609375 0.90359375 0 setrgbcolor
        558 0 moveto
        558 sp_dep lineto
        stroke
    
        0.99609375 0.89984375 0 setrgbcolor
        559 0 moveto
        559 sp_dep lineto
        stroke
    
        0.99609375 0.89609375 0 setrgbcolor
        560 0 moveto
        560 sp_dep lineto
        stroke
    
        0.99609375 0.89234375 0 setrgbcolor
        561 0 moveto
        561 sp_dep lineto
        stroke
    
        0.99609375 0.88859375 0 setrgbcolor
        562 0 moveto
        562 sp_dep lineto
        stroke
    
        0.99609375 0.88484375 0 setrgbcolor
        563 0 moveto
        563 sp_dep lineto
        stroke
    
        0.99609375 0.88109375 0 setrgbcolor
        564 0 moveto
        564 sp_dep lineto
        stroke
    
        0.99609375 0.87734375 0 setrgbcolor
        565 0 moveto
        565 sp_dep lineto
        stroke
    
        0.99609375 0.87359375 0 setrgbcolor
        566 0 moveto
        566 sp_dep lineto
        stroke
    
        0.99609375 0.86984375 0 setrgbcolor
        567 0 moveto
        567 sp_dep lineto
        stroke
    
        0.99609375 0.86609375 0 setrgbcolor
        568 0 moveto
        568 sp_dep lineto
        stroke
    
        0.99609375 0.86234375 0 setrgbcolor
        569 0 moveto
        569 sp_dep lineto
        stroke
    
        0.99609375 0.85859375 0 setrgbcolor
        570 0 moveto
        570 sp_dep lineto
        stroke
    
        0.99609375 0.85484375 0 setrgbcolor
        571 0 moveto
        571 sp_dep lineto
        stroke
    
        0.99609375 0.85109375 0 setrgbcolor
        572 0 moveto
        572 sp_dep lineto
        stroke
    
        0.99609375 0.84734375 0 setrgbcolor
        573 0 moveto
        573 sp_dep lineto
        stroke
    
        0.99609375 0.84359375 0 setrgbcolor
        574 0 moveto
        574 sp_dep lineto
        stroke
    
        0.99609375 0.83984375 0 setrgbcolor
        575 0 moveto
        575 sp_dep lineto
        stroke
    
        0.99609375 0.83609375 0 setrgbcolor
        576 0 moveto
        576 sp_dep lineto
        stroke
    
        0.99609375 0.83234375 0 setrgbcolor
        577 0 moveto
        577 sp_dep lineto
        stroke
    
        0.99609375 0.82859375 0 setrgbcolor
        578 0 moveto
        578 sp_dep lineto
        stroke
    
        0.99609375 0.82484375 0 setrgbcolor
        579 0 moveto
        579 sp_dep lineto
        stroke
    
        0.99609375 0.82109375 0 setrgbcolor
        580 0 moveto
        580 sp_dep lineto
        stroke
    
        0.99609375 0.81734375 0 setrgbcolor
        581 0 moveto
        581 sp_dep lineto
        stroke
    
        0.99609375 0.81359375 0 setrgbcolor
        582 0 moveto
        582 sp_dep lineto
        stroke
    
        0.99609375 0.80984375 0 setrgbcolor
        583 0 moveto
        583 sp_dep lineto
        stroke
    
        0.99609375 0.80609375 0 setrgbcolor
        584 0 moveto
        584 sp_dep lineto
        stroke
    
        0.99609375 0.80234375 0 setrgbcolor
        585 0 moveto
        585 sp_dep lineto
        stroke
    
        0.99609375 0.79859375 0 setrgbcolor
        586 0 moveto
        586 sp_dep lineto
        stroke
    
        0.99609375 0.79484375 0 setrgbcolor
        587 0 moveto
        587 sp_dep lineto
        stroke
    
        0.99609375 0.79109375 0 setrgbcolor
        588 0 moveto
        588 sp_dep lineto
        stroke
    
        0.99609375 0.78734375 0 setrgbcolor
        589 0 moveto
        589 sp_dep lineto
        stroke
    
        0.99609375 0.78359375 0 setrgbcolor
        590 0 moveto
        590 sp_dep lineto
        stroke
    
        0.99609375 0.77984375 0 setrgbcolor
        591 0 moveto
        591 sp_dep lineto
        stroke
    
        0.99609375 0.77609375 0 setrgbcolor
        592 0 moveto
        592 sp_dep lineto
        stroke
    
        0.99609375 0.77234375 0 setrgbcolor
        593 0 moveto
        593 sp_dep lineto
        stroke
    
        0.99609375 0.76859375 0 setrgbcolor
        594 0 moveto
        594 sp_dep lineto
        stroke
    
        0.99609375 0.76484375 0 setrgbcolor
        595 0 moveto
        595 sp_dep lineto
        stroke
    
        0.99609375 0.76109375 0 setrgbcolor
        596 0 moveto
        596 sp_dep lineto
        stroke
    
        0.99609375 0.75734375 0 setrgbcolor
        597 0 moveto
        597 sp_dep lineto
        stroke
    
        0.99609375 0.75359375 0 setrgbcolor
        598 0 moveto
        598 sp_dep lineto
        stroke
    
        0.99609375 0.74984375 0 setrgbcolor
        599 0 moveto
        599 sp_dep lineto
        stroke
    
        0.99609375 0.74609375 0 setrgbcolor
        600 0 moveto
        600 sp_dep lineto
        stroke
    
        0.99609375 0.74234375 0 setrgbcolor
        601 0 moveto
        601 sp_dep lineto
        stroke
    
        0.99609375 0.73859375 0 setrgbcolor
        602 0 moveto
        602 sp_dep lineto
        stroke
    
        0.99609375 0.73484375 0 setrgbcolor
        603 0 moveto
        603 sp_dep lineto
        stroke
    
        0.99609375 0.73109375 0 setrgbcolor
        604 0 moveto
        604 sp_dep lineto
        stroke
    
        0.99609375 0.72734375 0 setrgbcolor
        605 0 moveto
        605 sp_dep lineto
        stroke
    
        0.99609375 0.72359375 0 setrgbcolor
        606 0 moveto
        606 sp_dep lineto
        stroke
    
        0.99609375 0.71984375 0 setrgbcolor
        607 0 moveto
        607 sp_dep lineto
        stroke
    
        0.99609375 0.71609375 0 setrgbcolor
        608 0 moveto
        608 sp_dep lineto
        stroke
    
        0.99609375 0.71234375 0 setrgbcolor
        609 0 moveto
        609 sp_dep lineto
        stroke
    
        0.99609375 0.70859375 0 setrgbcolor
        610 0 moveto
        610 sp_dep lineto
        stroke
    
        0.99609375 0.70484375 0 setrgbcolor
        611 0 moveto
        611 sp_dep lineto
        stroke
    
        0.99609375 0.70109375 0 setrgbcolor
        612 0 moveto
        612 sp_dep lineto
        stroke
    
        0.99609375 0.69734375 0 setrgbcolor
        613 0 moveto
        613 sp_dep lineto
        stroke
    
        0.99609375 0.69359375 0 setrgbcolor
        614 0 moveto
        614 sp_dep lineto
        stroke
    
        0.99609375 0.68984375 0 setrgbcolor
        615 0 moveto
        615 sp_dep lineto
        stroke
    
        0.99609375 0.68609375 0 setrgbcolor
        616 0 moveto
        616 sp_dep lineto
        stroke
    
        0.99609375 0.68234375 0 setrgbcolor
        617 0 moveto
        617 sp_dep lineto
        stroke
    
        0.99609375 0.67859375 0 setrgbcolor
        618 0 moveto
        618 sp_dep lineto
        stroke
    
        0.99609375 0.67484375 0 setrgbcolor
        619 0 moveto
        619 sp_dep lineto
        stroke
    
        0.99609375 0.67109375 0 setrgbcolor
        620 0 moveto
        620 sp_dep lineto
        stroke
    
        0.99609375 0.66734375 0 setrgbcolor
        621 0 moveto
        621 sp_dep lineto
        stroke
    
        0.99609375 0.66359375 0 setrgbcolor
        622 0 moveto
        622 sp_dep lineto
        stroke
    
        0.99609375 0.65984375 0 setrgbcolor
        623 0 moveto
        623 sp_dep lineto
        stroke
    
        0.99609375 0.65609375 0 setrgbcolor
        624 0 moveto
        624 sp_dep lineto
        stroke
    
        0.99609375 0.65234375 0 setrgbcolor
        625 0 moveto
        625 sp_dep lineto
        stroke
    
        0.99609375 0.64859375 0 setrgbcolor
        626 0 moveto
        626 sp_dep lineto
        stroke
    
        0.99609375 0.64484375 0 setrgbcolor
        627 0 moveto
        627 sp_dep lineto
        stroke
    
        0.99609375 0.64109375 0 setrgbcolor
        628 0 moveto
        628 sp_dep lineto
        stroke
    
        0.99609375 0.63734375 0 setrgbcolor
        629 0 moveto
        629 sp_dep lineto
        stroke
    
        0.99609375 0.63359375 0 setrgbcolor
        630 0 moveto
        630 sp_dep lineto
        stroke
    
        0.99609375 0.62984375 0 setrgbcolor
        631 0 moveto
        631 sp_dep lineto
        stroke
    
        0.99609375 0.62609375 0 setrgbcolor
        632 0 moveto
        632 sp_dep lineto
        stroke
    
        0.99609375 0.62234375 0 setrgbcolor
        633 0 moveto
        633 sp_dep lineto
        stroke
    
        0.99609375 0.61859375 0 setrgbcolor
        634 0 moveto
        634 sp_dep lineto
        stroke
    
        0.99609375 0.61484375 0 setrgbcolor
        635 0 moveto
        635 sp_dep lineto
        stroke
    
        0.99609375 0.61109375 0 setrgbcolor
        636 0 moveto
        636 sp_dep lineto
        stroke
    
        0.99609375 0.60734375 0 setrgbcolor
        637 0 moveto
        637 sp_dep lineto
        stroke
    
        0.99609375 0.60359375 0 setrgbcolor
        638 0 moveto
        638 sp_dep lineto
        stroke
    
        0.99609375 0.59984375 0 setrgbcolor
        639 0 moveto
        639 sp_dep lineto
        stroke
    
        0.99609375 0.59609375 0 setrgbcolor
        640 0 moveto
        640 sp_dep lineto
        stroke
    
        0.99609375 0.59234375 0 setrgbcolor
        641 0 moveto
        641 sp_dep lineto
        stroke
    
        0.99609375 0.58859375 0 setrgbcolor
        642 0 moveto
        642 sp_dep lineto
        stroke
    
        0.99609375 0.58484375 0 setrgbcolor
        643 0 moveto
        643 sp_dep lineto
        stroke
    
        0.99609375 0.58109375 0 setrgbcolor
        644 0 moveto
        644 sp_dep lineto
        stroke
    
        0.99609375 0.57734375 0 setrgbcolor
        645 0 moveto
        645 sp_dep lineto
        stroke
    
        0.99609375 0.57359375 0 setrgbcolor
        646 0 moveto
        646 sp_dep lineto
        stroke
    
        0.99609375 0.56984375 0 setrgbcolor
        647 0 moveto
        647 sp_dep lineto
        stroke
    
        0.99609375 0.56609375 0 setrgbcolor
        648 0 moveto
        648 sp_dep lineto
        stroke
    
        0.99609375 0.56234375 0 setrgbcolor
        649 0 moveto
        649 sp_dep lineto
        stroke
    
        0.99609375 0.55859375 0 setrgbcolor
        650 0 moveto
        650 sp_dep lineto
        stroke
    
        0.99609375 0.55484375 0 setrgbcolor
        651 0 moveto
        651 sp_dep lineto
        stroke
    
        0.99609375 0.55109375 0 setrgbcolor
        652 0 moveto
        652 sp_dep lineto
        stroke
    
        0.99609375 0.54734375 0 setrgbcolor
        653 0 moveto
        653 sp_dep lineto
        stroke
    
        0.99609375 0.54359375 0 setrgbcolor
        654 0 moveto
        654 sp_dep lineto
        stroke
    
        0.99609375 0.53984375 0 setrgbcolor
        655 0 moveto
        655 sp_dep lineto
        stroke
    
        0.99609375 0.53609375 0 setrgbcolor
        656 0 moveto
        656 sp_dep lineto
        stroke
    
        0.99609375 0.53234375 0 setrgbcolor
        657 0 moveto
        657 sp_dep lineto
        stroke
    
        0.99609375 0.52859375 0 setrgbcolor
        658 0 moveto
        658 sp_dep lineto
        stroke
    
        0.99609375 0.52484375 0 setrgbcolor
        659 0 moveto
        659 sp_dep lineto
        stroke
    
        0.99609375 0.52109375 0 setrgbcolor
        660 0 moveto
        660 sp_dep lineto
        stroke
    
        0.99609375 0.51734375 0 setrgbcolor
        661 0 moveto
        661 sp_dep lineto
        stroke
    
        0.99609375 0.51359375 0 setrgbcolor
        662 0 moveto
        662 sp_dep lineto
        stroke
    
        0.99609375 0.50984375 0 setrgbcolor
        663 0 moveto
        663 sp_dep lineto
        stroke
    
        0.99609375 0.50609375 0 setrgbcolor
        664 0 moveto
        664 sp_dep lineto
        stroke
    
        0.99609375 0.50234375 0 setrgbcolor
        665 0 moveto
        665 sp_dep lineto
        stroke
    
        0.99609375 0.49859375 0 setrgbcolor
        666 0 moveto
        666 sp_dep lineto
        stroke
    
        0.99609375 0.494853515625 0 setrgbcolor
        667 0 moveto
        667 sp_dep lineto
        stroke
    
        0.99609375 0.4911328125 0 setrgbcolor
        668 0 moveto
        668 sp_dep lineto
        stroke
    
        0.99609375 0.487412109375 0 setrgbcolor
        669 0 moveto
        669 sp_dep lineto
        stroke
    
        0.99609375 0.48369140625 0 setrgbcolor
        670 0 moveto
        670 sp_dep lineto
        stroke
    
        0.99609375 0.479970703125 0 setrgbcolor
        671 0 moveto
        671 sp_dep lineto
        stroke
    
        0.99609375 0.47625 0 setrgbcolor
        672 0 moveto
        672 sp_dep lineto
        stroke
    
        0.99609375 0.472529296875 0 setrgbcolor
        673 0 moveto
        673 sp_dep lineto
        stroke
    
        0.99609375 0.46880859375 0 setrgbcolor
        674 0 moveto
        674 sp_dep lineto
        stroke
    
        0.99609375 0.465087890625 0 setrgbcolor
        675 0 moveto
        675 sp_dep lineto
        stroke
    
        0.99609375 0.4613671875 0 setrgbcolor
        676 0 moveto
        676 sp_dep lineto
        stroke
    
        0.99609375 0.457646484375 0 setrgbcolor
        677 0 moveto
        677 sp_dep lineto
        stroke
    
        0.99609375 0.45392578125 0 setrgbcolor
        678 0 moveto
        678 sp_dep lineto
        stroke
    
        0.99609375 0.450205078125 0 setrgbcolor
        679 0 moveto
        679 sp_dep lineto
        stroke
    
        0.99609375 0.446484375 0 setrgbcolor
        680 0 moveto
        680 sp_dep lineto
        stroke
    
        0.99609375 0.442763671875 0 setrgbcolor
        681 0 moveto
        681 sp_dep lineto
        stroke
    
        0.99609375 0.43904296875 0 setrgbcolor
        682 0 moveto
        682 sp_dep lineto
        stroke
    
        0.99609375 0.435322265625 0 setrgbcolor
        683 0 moveto
        683 sp_dep lineto
        stroke
    
        0.99609375 0.4316015625 0 setrgbcolor
        684 0 moveto
        684 sp_dep lineto
        stroke
    
        0.99609375 0.427880859375 0 setrgbcolor
        685 0 moveto
        685 sp_dep lineto
        stroke
    
        0.99609375 0.42416015625 0 setrgbcolor
        686 0 moveto
        686 sp_dep lineto
        stroke
    
        0.99609375 0.420439453125 0 setrgbcolor
        687 0 moveto
        687 sp_dep lineto
        stroke
    
        0.99609375 0.41671875 0 setrgbcolor
        688 0 moveto
        688 sp_dep lineto
        stroke
    
        0.99609375 0.412998046875 0 setrgbcolor
        689 0 moveto
        689 sp_dep lineto
        stroke
    
        0.99609375 0.40927734375 0 setrgbcolor
        690 0 moveto
        690 sp_dep lineto
        stroke
    
        0.99609375 0.405556640625 0 setrgbcolor
        691 0 moveto
        691 sp_dep lineto
        stroke
    
        0.99609375 0.4018359375 0 setrgbcolor
        692 0 moveto
        692 sp_dep lineto
        stroke
    
        0.99609375 0.398115234375 0 setrgbcolor
        693 0 moveto
        693 sp_dep lineto
        stroke
    
        0.99609375 0.39439453125 0 setrgbcolor
        694 0 moveto
        694 sp_dep lineto
        stroke
    
        0.99609375 0.390673828125 0 setrgbcolor
        695 0 moveto
        695 sp_dep lineto
        stroke
    
        0.99609375 0.386953125 0 setrgbcolor
        696 0 moveto
        696 sp_dep lineto
        stroke
    
        0.99609375 0.383232421875 0 setrgbcolor
        697 0 moveto
        697 sp_dep lineto
        stroke
    
        0.99609375 0.37951171875 0 setrgbcolor
        698 0 moveto
        698 sp_dep lineto
        stroke
    
        0.99609375 0.375791015625 0 setrgbcolor
        699 0 moveto
        699 sp_dep lineto
        stroke
    
        0.99609375 0.3720703125 0 setrgbcolor
        700 0 moveto
        700 sp_dep lineto
        stroke
    
        0.99609375 0.368349609375 0 setrgbcolor
        701 0 moveto
        701 sp_dep lineto
        stroke
    
        0.99609375 0.36462890625 0 setrgbcolor
        702 0 moveto
        702 sp_dep lineto
        stroke
    
        0.99609375 0.360908203125 0 setrgbcolor
        703 0 moveto
        703 sp_dep lineto
        stroke
    
        0.99609375 0.3571875 0 setrgbcolor
        704 0 moveto
        704 sp_dep lineto
        stroke
    
        0.99609375 0.353466796875 0 setrgbcolor
        705 0 moveto
        705 sp_dep lineto
        stroke
    
        0.99609375 0.34974609375 0 setrgbcolor
        706 0 moveto
        706 sp_dep lineto
        stroke
    
        0.99609375 0.346025390625 0 setrgbcolor
        707 0 moveto
        707 sp_dep lineto
        stroke
    
        0.99609375 0.3423046875 0 setrgbcolor
        708 0 moveto
        708 sp_dep lineto
        stroke
    
        0.99609375 0.338583984375 0 setrgbcolor
        709 0 moveto
        709 sp_dep lineto
        stroke
    
        0.99609375 0.33486328125 0 setrgbcolor
        710 0 moveto
        710 sp_dep lineto
        stroke
    
        0.99609375 0.331142578125 0 setrgbcolor
        711 0 moveto
        711 sp_dep lineto
        stroke
    
        0.99609375 0.327421875 0 setrgbcolor
        712 0 moveto
        712 sp_dep lineto
        stroke
    
        0.99609375 0.323701171875 0 setrgbcolor
        713 0 moveto
        713 sp_dep lineto
        stroke
    
        0.99609375 0.31998046875 0 setrgbcolor
        714 0 moveto
        714 sp_dep lineto
        stroke
    
        0.99609375 0.316259765625 0 setrgbcolor
        715 0 moveto
        715 sp_dep lineto
        stroke
    
        0.99609375 0.3125390625 0 setrgbcolor
        716 0 moveto
        716 sp_dep lineto
        stroke
    
        0.99609375 0.308818359375 0 setrgbcolor
        717 0 moveto
        717 sp_dep lineto
        stroke
    
        0.99609375 0.30509765625 0 setrgbcolor
        718 0 moveto
        718 sp_dep lineto
        stroke
    
        0.99609375 0.301376953125 0 setrgbcolor
        719 0 moveto
        719 sp_dep lineto
        stroke
    
        0.99609375 0.29765625 0 setrgbcolor
        720 0 moveto
        720 sp_dep lineto
        stroke
    
        0.99609375 0.293935546875 0 setrgbcolor
        721 0 moveto
        721 sp_dep lineto
        stroke
    
        0.99609375 0.29021484375 0 setrgbcolor
        722 0 moveto
        722 sp_dep lineto
        stroke
    
        0.99609375 0.286494140625 0 setrgbcolor
        723 0 moveto
        723 sp_dep lineto
        stroke
    
        0.99609375 0.2827734375 0 setrgbcolor
        724 0 moveto
        724 sp_dep lineto
        stroke
    
        0.99609375 0.279052734375 0 setrgbcolor
        725 0 moveto
        725 sp_dep lineto
        stroke
    
        0.99609375 0.27533203125 0 setrgbcolor
        726 0 moveto
        726 sp_dep lineto
        stroke
    
        0.99609375 0.271611328125 0 setrgbcolor
        727 0 moveto
        727 sp_dep lineto
        stroke
    
        0.99609375 0.267890625 0 setrgbcolor
        728 0 moveto
        728 sp_dep lineto
        stroke
    
        0.99609375 0.264169921875 0 setrgbcolor
        729 0 moveto
        729 sp_dep lineto
        stroke
    
        0.99609375 0.26044921875 0 setrgbcolor
        730 0 moveto
        730 sp_dep lineto
        stroke
    
        0.99609375 0.256728515625 0 setrgbcolor
        731 0 moveto
        731 sp_dep lineto
        stroke
    
        0.99609375 0.2530078125 0 setrgbcolor
        732 0 moveto
        732 sp_dep lineto
        stroke
    
        0.99609375 0.249287109375 0 setrgbcolor
        733 0 moveto
        733 sp_dep lineto
        stroke
    
        0.99609375 0.24556640625 0 setrgbcolor
        734 0 moveto
        734 sp_dep lineto
        stroke
    
        0.99609375 0.241845703125 0 setrgbcolor
        735 0 moveto
        735 sp_dep lineto
        stroke
    
        0.99609375 0.238125 0 setrgbcolor
        736 0 moveto
        736 sp_dep lineto
        stroke
    
        0.99609375 0.234404296875 0 setrgbcolor
        737 0 moveto
        737 sp_dep lineto
        stroke
    
        0.99609375 0.23068359375 0 setrgbcolor
        738 0 moveto
        738 sp_dep lineto
        stroke
    
        0.99609375 0.226962890625 0 setrgbcolor
        739 0 moveto
        739 sp_dep lineto
        stroke
    
        0.99609375 0.2232421875 0 setrgbcolor
        740 0 moveto
        740 sp_dep lineto
        stroke
    
        0.99609375 0.219521484375 0 setrgbcolor
        741 0 moveto
        741 sp_dep lineto
        stroke
    
        0.99609375 0.21580078125 0 setrgbcolor
        742 0 moveto
        742 sp_dep lineto
        stroke
    
        0.99609375 0.212080078125 0 setrgbcolor
        743 0 moveto
        743 sp_dep lineto
        stroke
    
        0.99609375 0.208359375 0 setrgbcolor
        744 0 moveto
        744 sp_dep lineto
        stroke
    
        0.99609375 0.204638671875 0 setrgbcolor
        745 0 moveto
        745 sp_dep lineto
        stroke
    
        0.99609375 0.20091796875 0 setrgbcolor
        746 0 moveto
        746 sp_dep lineto
        stroke
    
        0.99609375 0.197197265625 0 setrgbcolor
        747 0 moveto
        747 sp_dep lineto
        stroke
    
        0.99609375 0.1934765625 0 setrgbcolor
        748 0 moveto
        748 sp_dep lineto
        stroke
    
        0.99609375 0.189755859375 0 setrgbcolor
        749 0 moveto
        749 sp_dep lineto
        stroke
    
        0.99609375 0.18603515625 0 setrgbcolor
        750 0 moveto
        750 sp_dep lineto
        stroke
    
        0.99609375 0.182314453125 0 setrgbcolor
        751 0 moveto
        751 sp_dep lineto
        stroke
    
        0.99609375 0.17859375 0 setrgbcolor
        752 0 moveto
        752 sp_dep lineto
        stroke
    
        0.99609375 0.174873046875 0 setrgbcolor
        753 0 moveto
        753 sp_dep lineto
        stroke
    
        0.99609375 0.17115234375 0 setrgbcolor
        754 0 moveto
        754 sp_dep lineto
        stroke
    
        0.99609375 0.167431640625 0 setrgbcolor
        755 0 moveto
        755 sp_dep lineto
        stroke
    
        0.99609375 0.1637109375 0 setrgbcolor
        756 0 moveto
        756 sp_dep lineto
        stroke
    
        0.99609375 0.159990234375 0 setrgbcolor
        757 0 moveto
        757 sp_dep lineto
        stroke
    
        0.99609375 0.15626953125 0 setrgbcolor
        758 0 moveto
        758 sp_dep lineto
        stroke
    
        0.99609375 0.152548828125 0 setrgbcolor
        759 0 moveto
        759 sp_dep lineto
        stroke
    
        0.99609375 0.148828125 0 setrgbcolor
        760 0 moveto
        760 sp_dep lineto
        stroke
    
        0.99609375 0.145107421875 0 setrgbcolor
        761 0 moveto
        761 sp_dep lineto
        stroke
    
        0.99609375 0.14138671875 0 setrgbcolor
        762 0 moveto
        762 sp_dep lineto
        stroke
    
        0.99609375 0.137666015625 0 setrgbcolor
        763 0 moveto
        763 sp_dep lineto
        stroke
    
        0.99609375 0.1339453125 0 setrgbcolor
        764 0 moveto
        764 sp_dep lineto
        stroke
    
        0.99609375 0.130224609375 0 setrgbcolor
        765 0 moveto
        765 sp_dep lineto
        stroke
    
        0.99609375 0.12650390625 0 setrgbcolor
        766 0 moveto
        766 sp_dep lineto
        stroke
    
        0.99609375 0.122783203125 0 setrgbcolor
        767 0 moveto
        767 sp_dep lineto
        stroke
    
        0.99609375 0.1190625 0 setrgbcolor
        768 0 moveto
        768 sp_dep lineto
        stroke
    
        0.99609375 0.115341796875 0 setrgbcolor
        769 0 moveto
        769 sp_dep lineto
        stroke
    
        0.99609375 0.11162109375 0 setrgbcolor
        770 0 moveto
        770 sp_dep lineto
        stroke
    
        0.99609375 0.107900390625 0 setrgbcolor
        771 0 moveto
        771 sp_dep lineto
        stroke
    
        0.99609375 0.1041796875 0 setrgbcolor
        772 0 moveto
        772 sp_dep lineto
        stroke
    
        0.99609375 0.100458984375 0 setrgbcolor
        773 0 moveto
        773 sp_dep lineto
        stroke
    
        0.99609375 0.0967382812500003 0 setrgbcolor
        774 0 moveto
        774 sp_dep lineto
        stroke
    
        0.99609375 0.0930175781250003 0 setrgbcolor
        775 0 moveto
        775 sp_dep lineto
        stroke
    
        0.99609375 0.0892968750000003 0 setrgbcolor
        776 0 moveto
        776 sp_dep lineto
        stroke
    
        0.99609375 0.0855761718750003 0 setrgbcolor
        777 0 moveto
        777 sp_dep lineto
        stroke
    
        0.99609375 0.0818554687500003 0 setrgbcolor
        778 0 moveto
        778 sp_dep lineto
        stroke
    
        0.99609375 0.0781347656250003 0 setrgbcolor
        779 0 moveto
        779 sp_dep lineto
        stroke
    
        0.99609375 0.0744140625000003 0 setrgbcolor
        780 0 moveto
        780 sp_dep lineto
        stroke
    
        0.99609375 0.0706933593750003 0 setrgbcolor
        781 0 moveto
        781 sp_dep lineto
        stroke
    
        0.99609375 0.0669726562500003 0 setrgbcolor
        782 0 moveto
        782 sp_dep lineto
        stroke
    
        0.99609375 0.0632519531250003 0 setrgbcolor
        783 0 moveto
        783 sp_dep lineto
        stroke
    
        0.99609375 0.0595312500000003 0 setrgbcolor
        784 0 moveto
        784 sp_dep lineto
        stroke
    
        0.99609375 0.0558105468750003 0 setrgbcolor
        785 0 moveto
        785 sp_dep lineto
        stroke
    
        0.99609375 0.0520898437500003 0 setrgbcolor
        786 0 moveto
        786 sp_dep lineto
        stroke
    
        0.99609375 0.0483691406250003 0 setrgbcolor
        787 0 moveto
        787 sp_dep lineto
        stroke
    
        0.99609375 0.0446484375000004 0 setrgbcolor
        788 0 moveto
        788 sp_dep lineto
        stroke
    
        0.99609375 0.0409277343750004 0 setrgbcolor
        789 0 moveto
        789 sp_dep lineto
        stroke
    
        0.99609375 0.0372070312500004 0 setrgbcolor
        790 0 moveto
        790 sp_dep lineto
        stroke
    
        0.99609375 0.0334863281250004 0 setrgbcolor
        791 0 moveto
        791 sp_dep lineto
        stroke
    
        0.99609375 0.0297656250000004 0 setrgbcolor
        792 0 moveto
        792 sp_dep lineto
        stroke
    
        0.99609375 0.0260449218750003 0 setrgbcolor
        793 0 moveto
        793 sp_dep lineto
        stroke
    
        0.99609375 0.0223242187500003 0 setrgbcolor
        794 0 moveto
        794 sp_dep lineto
        stroke
    
        0.99609375 0.0186035156250003 0 setrgbcolor
        795 0 moveto
        795 sp_dep lineto
        stroke
    
        0.99609375 0.0148828125000003 0 setrgbcolor
        796 0 moveto
        796 sp_dep lineto
        stroke
    
        0.99609375 0.0111621093750003 0 setrgbcolor
        797 0 moveto
        797 sp_dep lineto
        stroke
    
        0.99609375 0.00744140625000028 0 setrgbcolor
        798 0 moveto
        798 sp_dep lineto
        stroke
    
        0.99609375 0.00372070312500028 0 setrgbcolor
        799 0 moveto
        799 sp_dep lineto
        stroke
    