%!PS
%%BoundingBox: 0 0 1000 1000
%%EndComments

% Setup the display
<<
    /PageSize [ 1000 1000 ]
    /ImagingBBox null
>> setpagedevice

/gcd {
    /a exch def
    /b exch def
    a b mod 0 eq { b } { a b mod b gcd } ifelse
} def

/spiro {

    /r exch def

    /loops sml_r sml_r big_r gcd div def
    max_loops 0 gt loops max_loops gt and { /loops max_loops def } if

    /v1 big_r sml_r sub def

    0 .5 360 loops mul {

        /a exch def

        /v2 v1 sml_r div a mul def

        v1 a cos mul r v2 cos mul add sc mul
        v1 a sin mul r v2 sin mul sub sc mul

        a 0 eq { moveto } { lineto } ifelse

    } for

    stroke
} def

0 0 moveto
1000 0 lineto
1000 1000 lineto
0 1000 lineto
0 0 lineto
fill

500 500 translate

/big_r 96 def
/sml_r 46 def
/rho 27 def
/max_loops 40 def

0 0 moveto
/sc 450 big_r div def

0 1 0 0 setcmykcolor 14 spiro
0 1 0 0 setcmykcolor 18 spiro
0 1 0 0 setcmykcolor 22 spiro
0 1 0 0 setcmykcolor 26 spiro
0 1 0 0 setcmykcolor 30 spiro
