%!PS
%%BoundingBox: 0 0 1000 1000
%%EndComments

% Setup the display
<<
    /PageSize [ 1000 1000 ]
    /ImagingBBox null 
>> setpagedevice

0 0 moveto
1000 0 lineto
1000 1000 lineto
0 1000 lineto
0 0 lineto
fill

500 500 translate 

/pi 3.1415826 def
/phi 5 sqrt 1 sub 2 div def

/sc 10 def

/factors {

   /val exch def
   /cnt 0 def
   /dvr 2 def

   /lim val sqrt def

   {
      {
         val dvr div dup cvi ne { exit } if
         /val val dvr div def
         /cnt cnt 1 add def
      } loop

      /dvr dvr 1 add def
      dvr lim gt { exit } if

   } loop

   cnt
} def

/Helvetica-Bold findfont 7 scalefont setfont
1 1 2000 {

   /num exch def

   /a 2 180 mul phi mul num mul def
   /r num sqrt def

   a sin r mul sc mul
   a cos r mul sc mul

   moveto

   num num ln cvi 1 add string cvs 
   dup stringwidth pop -2 div 0 rmoveto

   num factors 1 eq { 0 0 1 0 setcmykcolor } {.65 setgray } ifelse
	
   show
}
for

showpage
