%!PS
%%BoundingBox: 0 0 1000 1000
%%EndComments

% Setup the display
<<
    /PageSize [ 1000 1000 ]
    /ImagingBBox null
>> setpagedevice

/xc 500 def
/yc 500 def

/sc .45 def
/sz 1 def

0 0 moveto
1000 0 lineto
1000 1000 lineto
0 1000 lineto
0 0 lineto
fill

xc yc translate

/Helvetica findfont 5 scalefont setfont 

/factors {

   /val exch def
   /cnt 0 def
   /dvr 2 def

   /lim val sqrt def

   {
      {
         val dvr div dup cvi ne { exit } if
         /val val dvr div def
         /cnt cnt 1 add def
      } loop

      /dvr dvr 1 add def
      dvr lim gt { exit } if

   } loop

   cnt
} def

2 1 1000 {

   /pos exch def

   % Each spiral arm starts with the next square number
   
   /lo pos 1 sub dup mul def
   /hi pos dup mul def

   lo 1 hi { 

      /num exch def

      /ang num lo sub hi lo sub div 360 mul def
      /rad pos ang 360 div add def

      90 ang sub sin rad mul sc mul
      90 ang sub cos rad mul sc mul

      moveto 
      %num (     ) cvs show
      sz -2 div dup rmoveto sz 0 rlineto 0 sz rlineto sz neg 0 rlineto closepath
      num factors 0 eq { 0 0 1 0 setcmykcolor } { .15 setgray } ifelse fill

   } for

} for 

showpage
