%!PS

/sc 3 def
/sz 90 def

/spectrum {

   /v exch def
   {
      v 1 gt {
         /v v 1 sub def
      } {
         v 0 lt {
            /v v 1 add def
         } {
            exit
         } ifelse
      } ifelse

   } loop

   /a v 180 mul 90 add def
      
   /q .35 def

   a sin q mul 1 q sub add
   a 120 add sin q mul 1 q sub add
   a 240 add sin q mul 1 q sub add

   setrgbcolor

} def

/mv { sc mul exch sc mul exch moveto } def
/ln { sc mul exch sc mul exch lineto } def

/ln2 { 

   /y2 exch def
   /x2 exch def
   /y1 exch def
   /x1 exch def

   /r x2 x1 sub dup mul y2 y1 sub dup mul add sqrt def

   /sn y2 y1 sub r div def
   /cs x2 x1 sub r div def

   0 1 sz {

      /s exch def
      s sz div r mul /rn exch def

      /d r 15 div s sz div 720 mul sin mul def

      rn cs mul d sn mul sub x1 add
      rn sn mul d cs mul add y1 add
      s 0 eq { mv } { ln } ifelse

   } for

   stroke

} def

0 0 moveto
1000 0 lineto
1000 1000 lineto
0 1000 lineto
0 0 lineto
fill

gsave
165 450 translate

0 1 sz {

   /p exch def

   p sz div spectrum

   0 p p sz ln2
   p sz sz sz p sub ln2
   sz p sub 0 sz sz p sub ln2
   0 p sz p sub 0 ln2

   stroke

} for

grestore
gsave
300 210 translate

1 1 sz {

   /p exch def

   p sz div spectrum

   /p p 1.5 div def

   p neg 0 0 p ln2
   0 p p 0 ln2
   p neg 0 0 p neg ln2
   0 p neg p 0 ln2

   stroke

} for

grestore
showpage
