%!PS

/sc 3 def
/sz 120 def

/spectrum {

   /v exch def
   {
      v 1 gt {
         /v v 1 sub def
      } {
         v 0 lt {
            /v v 1 add def
         } {
            exit
         } ifelse
      } ifelse

   } loop

   /a v 180 mul 90 add def
      
   /q .35 def

   a sin q mul 1 q sub add
   a 120 add sin q mul 1 q sub add
   a 240 add sin q mul 1 q sub add

   setrgbcolor

} def

/mv { sc mul exch sc mul exch moveto } def
/ln { sc mul exch sc mul exch lineto } def

/ln2 { 

   /y2 exch def
   /x2 exch def
   /y1 exch def
   /x1 exch def

   /r x2 x1 sub dup mul y2 y1 sub dup mul add sqrt def

   /sn y2 y1 sub r div def
   /cs x2 x1 sub r div def

   0 1 sz {

      /s exch def
      s sz div r mul /rn exch def

      /d r 15 div s sz div 720 mul sin mul def

      rn cs mul d sn mul sub x1 add
      rn sn mul d cs mul add y1 add
      s 0 eq { mv } { ln } ifelse

   } for

   stroke

} def

0 0 moveto
1000 0 lineto
1000 1000 lineto
0 1000 lineto
0 0 lineto
fill

gsave
145 430 translate

/sn30 0.5 def
/cs30 3 sqrt 2 div def
/sn60 3 sqrt 2 div def
/cs60 0.5 def

0 1 sz {

   /p exch def

   p sz div spectrum

   p cs60 mul p sn60 mul 
   sz 2 div p sn30 mul add sz sn60 mul p cs30 mul sub ln2
   sz 2 div p sn30 mul add sz sn60 mul p cs30 mul sub 
   sz p sub 0 ln2
   sz p sub 0 
   p cs60 mul p sn60 mul ln2

   stroke

} for

grestore
gsave
320 250 translate
60 rotate

/z 1.7 def

1 1 sz {

   gsave

   /p exch def

   p sz div spectrum

   /p p z div def

   p cs30 mul neg p sn30 mul neg 
   0 sz z div  p sub ln2

   0 0 moveto
   120 rotate
   p cs30 mul neg p sn30 mul neg 
   0 sz z div  p sub ln2

   0 0 moveto
   120 rotate
   p cs30 mul neg p sn30 mul neg 
   0 sz z div  p sub ln2
   
   stroke

   grestore

} for

grestore
showpage
