%!PS
%%BoundingBox: 0 0 1000 1000
%%EndComments

<<
    /PageSize [ 1000 1000 ]
    /ImagingBBox null
>> setpagedevice

/sc 5 def

/mv { sc mul exch 5 mul exch moveto } bind def
/ln { sc mul exch 5 mul exch lineto } bind def

0 0 mv 1000 0 ln 1000 1000 ln 0 1000 ln fill

100 100 translate

00 00 mv
00 20 ln
10 20 ln
10 30 ln
30 30 ln
30 10 ln
20 10 ln
20 00 ln
00 00 ln
gsave 1 0 0 setrgbcolor fill grestore stroke

50 20 mv
30 20 ln
30 30 ln
20 30 ln
20 50 ln
40 50 ln
40 40 ln
50 40 ln
50 20 ln
gsave 1 1 0 setrgbcolor fill grestore stroke

00 20 mv
00 50 ln
20 50 ln
20 30 ln
10 30 ln
10 20 ln
00 20 ln
gsave 0 1 0 setrgbcolor fill grestore stroke

20 00 mv
50 00 ln
50 20 ln
30 20 ln
30 10 ln
20 10 ln
20 00 ln
gsave 0 1 0 setrgbcolor fill grestore stroke

50 40 mv
50 70 ln
30 70 ln
30 50 ln
40 50 ln
40 40 ln
50 40 ln
gsave 0 1 0 setrgbcolor fill grestore stroke

400 400 translate

00 00 mv
00 20 ln
10 20 ln
10 30 ln
30 30 ln
30 10 ln
20 10 ln
20 00 ln
00 00 ln
gsave 1 0 0 setrgbcolor fill grestore stroke

00 20 mv
00 50 ln
20 50 ln
20 30 ln
10 30 ln
10 20 ln
00 20 ln
gsave 0 1 0 setrgbcolor fill grestore stroke

20 00 mv
50 00 ln
50 20 ln
30 20 ln
30 10 ln
20 10 ln
20 00 ln
gsave 0 1 0 setrgbcolor fill grestore stroke

50 70 mv
20 70 ln
20 50 ln
40 50 ln
40 60 ln
50 60 ln
50 70 ln
gsave 0 1 0 setrgbcolor fill grestore stroke

70 50 mv
70 20 ln
50 20 ln
50 40 ln
60 40 ln
60 50 ln
70 50 ln
gsave 0 1 0 setrgbcolor fill grestore stroke

50 20 mv
30 20 ln
30 30 ln
20 30 ln
20 50 ln
40 50 ln
40 40 ln
50 40 ln
50 20 ln
gsave 1 1 0 setrgbcolor fill grestore stroke

40 40 mv
40 60 ln
50 60 ln
50 70 ln
70 70 ln
70 50 ln
60 50 ln
60 40 ln
40 40 ln
gsave 1 0 0 setrgbcolor fill grestore stroke
