%!PS
%%BoundingBox: 0 0 1000 1000
%%EndComments

<<
  /PageSize [ 1000 1000 ]
  /ImagingBBox null
>>
setpagedevice

/Arial findfont 10 scalefont setfont
0 0 moveto 1000 0 lineto 1000 1000 lineto 0 1000 lineto
0 setgray fill

/ax 800 def

100 100 translate

/crs {

    /oy exch def
    /ox exch def

    ox 1 sub oy 1 sub moveto ox 1 add oy 1 add lineto
    ox 1 add oy 1 sub moveto ox 1 sub oy 1 add lineto
    stroke
} def

0 0 moveto ax 0 lineto
0 0 moveto 0 ax lineto
0 0 1 setrgbcolor stroke

1 1 ax {

    /x exch def

    1 1 0 setrgbcolor x x crs
    1 1 0 setrgbcolor x x ax div dup mul ax mul crs
    1 1 0 setrgbcolor x x ax div dup mul dup mul ax mul crs

    /a x ax div 180 mul 90 sub def
    0 1 0 setrgbcolor x a sin 1 add 2 div ax mul crs
    0 1 0 setrgbcolor x a sin 1 add 2 div dup mul ax mul 2 mul crs
    x ax 2 div gt {
        /a a -1 mul def
        1 0 0 setrgbcolor x ax a sin 1 add 2 div dup mul ax mul 2 mul sub crs
    } if
} for
