%!PS
%%BoundingBox: 0 0 595 842
%%EndComments

<<
  /PageSize [ 595 842 ]
  /ImagingBBox null
>>
setpagedevice

0 0 moveto 1000 0 lineto 1000 1000 lineto 0 1000 lineto
0 setgray fill

1 setgray
/Arial-Bold findfont 15 scalefont setfont
50 810 moveto (julia-sin.dat) show

/showInfoY 0 def
/showInfo {
    /str2 exch def
    /str1 exch def
    0 showInfoY moveto str1 show (:) show
    100 showInfoY moveto str2 show
    /showInfoY showInfoY 15 add def
} def

gsave 
75 650 translate
/Arial findfont 12 scalefont setfont
(Color Scheme) (trig-gray) showInfo
(Pic size) (2860 x 1920) showInfo
(Max Image Iters) (699) showInfo
(Max Iters) (700) showInfo
(Escape) (700.00000000000000000000) showInfo
(Image size) (6.28200000000000002842) showInfo
(Image centre) ((0.00000000000000000000,0.00000000000000000000)) showInfo
(Seed) (1.2345,5.4321) showInfo
(Type) (Julia set z = c+sin(z)) showInfo
grestore

gsave
50 450 translate
/Arial findfont 12 scalefont setfont
1 setgray
0 150 moveto (Iteration Distribution) show
0 1 0 setrgbcolor
0 0 moveto 0 130 lineto
0 0 moveto 490 0 lineto
stroke
grestore

gsave
50 250 translate
/Arial findfont 12 scalefont setfont
1 setgray
0 150 moveto (Distance Distribution) show
0 1 0 setrgbcolor
0 0 moveto 0 130 lineto
0 0 moveto 490 0 lineto
stroke
grestore

gsave
50 50 translate
/Arial findfont 12 scalefont setfont
1 setgray
0 150 moveto (Color Distribution) show
0 1 0 setrgbcolor
0 0 moveto 0 130 lineto
0 0 moveto 490 0 lineto
stroke
grestore
