%!PS

0 0 moveto
1000 0 lineto
1000 1000 lineto
0 1000 lineto
0 0 lineto
0 setgray fill

%-----------------------------------
% Adjust the acceleration through x
%-----------------------------------
/prex {

    /v exch def
    v 2 mul 1 sub 
    dup dup mul mul
    1 add 2 div
    dup mul
} def

%-----------------------------------
% Find the red value
%-----------------------------------
/red {

    /v exch def
    v
} def

%-----------------------------------
% Find the red value
%-----------------------------------
/green {

    /v exch def
    v 2 mul 1 sub 
    dup dup mul mul
    1 add 2 div
    dup mul
    dup mul
    dup mul
} def

%-----------------------------------
% Find the red value
%-----------------------------------
/blue {

    /v exch def
    v sqrt 180 mul sin
} def

%-----------------------------------
% Draw the graph
%-----------------------------------
gsave

97 200 translate

0 0 moveto
0 300 rlineto
0 0 moveto
400 0 rlineto
closepath

1 setgray
0.5 setlinewidth
stroke

1 setlinewidth

0 1 400 {

    /x exch def
        
    x
    x 400 div prex 300 mul
    x 0 eq { moveto } {lineto } ifelse
    
} for
.7 setgray
stroke

0 1 400 {

    /x exch def
        
    x
    x 400 div red 300 mul
    x 0 eq { moveto } {lineto } ifelse
    
} for
[ 3 6 ] 0 setdash
1 0 0 setrgbcolor
stroke

0 1 400 {

    /x exch def
        
    x
    x 400 div green 300 mul
    x 0 eq { moveto } {lineto } ifelse
    
} for
[ 3 6 ] 3 setdash
0 1 0 setrgbcolor
stroke

0 1 400 {

    /x exch def
        
    x
    x 400 div blue 300 mul
    x 0 eq { moveto } {lineto } ifelse
    
} for
[ 3 6 ] 6 setdash
0 0 1 setrgbcolor
stroke

grestore

%-----------------------------------
% Draw the bar
%-----------------------------------
gsave
97 100 translate
1.5 setlinewidth
0 1 400 {

    /x exch def

    x 0 moveto
    0 35 rlineto

    x 400 div red
    x 400 div green
    x 400 div blue
    setrgbcolor
    stroke

} for

0 0 moveto
0 35 rlineto
400 0 rlineto
0 -35 rlineto
closepath
1 setgray
0.5 setlinewidth
stroke

grestore
