%!PS

    <<
        /PageSize [ 530.000000 750.000000 ]
        /ImagingBBox null
    >> setpagedevice

    /mv { moveto } bind def
    /ln { lineto } bind def

    /drawArc {
        /a1 exch def
        /a2 exch def
        /rad exch def
        /yc exch def
        /xc exch def

        xc a1 cos rad mul add
        yc a1 sin rad mul add
        moveto
        xc yc rad a1 a2 arcn
    } bind def

    /Arial findfont 10 scalefont setfont

    0 0 mv 1000 0 ln 1000 1000 ln 0 1000 ln fill
    265.000000 375.000000 translate
1 1 0 setrgbcolor
10.000000 -30.776840 mv 42.360680 -30.776840 ln 0.000000 0.000000 ln -16.180340 -49.797960 ln closepath stroke
1 0 0 setrgbcolor 0.000000 0.000000 20.000000 -108.000002 -36.000002 drawArc stroke
0 1 0 setrgbcolor 10.000000 -30.776840 12.360680 0.000000 216.000000 drawArc stroke
1 1 0 setrgbcolor
26.180340 -80.574800 mv 68.541020 -49.797960 ln 42.360680 -30.776840 ln 10.000000 -30.776840 ln closepath stroke
1 0 0 setrgbcolor 26.180340 -80.574800 32.360680 36.000004 108.000004 drawArc stroke
0 1 0 setrgbcolor 42.360680 -30.776840 20.000000 180.000000 324.000000 drawArc stroke
1 1 0 setrgbcolor
32.360680 0.000000 mv 42.360680 30.776840 ln 0.000000 0.000000 ln 42.360680 -30.776840 ln closepath stroke
1 0 0 setrgbcolor 0.000000 0.000000 20.000000 -36.000004 35.999996 drawArc stroke
0 1 0 setrgbcolor 32.360680 0.000000 12.360680 72.000003 288.000003 drawArc stroke
1 1 0 setrgbcolor
-26.180340 -19.021140 mv -16.180340 -49.797960 ln 0.000000 0.000000 ln -52.360680 0.000000 ln closepath stroke
1 0 0 setrgbcolor 0.000000 0.000000 20.000000 180.000000 252.000000 drawArc stroke
0 1 0 setrgbcolor -26.180340 -19.021140 12.360680 -71.999992 144.000008 drawArc stroke
1 1 0 setrgbcolor
26.180340 -80.574800 mv 10.000000 -30.776840 ln -16.180340 -49.797960 ln -26.180340 -80.574800 ln closepath stroke
1 0 0 setrgbcolor 26.180340 -80.574800 32.360680 108.000002 180.000002 drawArc stroke
0 1 0 setrgbcolor -16.180340 -49.797960 20.000000 -107.999997 36.000003 drawArc stroke
1 1 0 setrgbcolor
58.541020 -80.574800 mv 84.721360 -99.595940 ln 68.541020 -49.797960 ln 26.180340 -80.574800 ln closepath stroke
1 0 0 setrgbcolor 68.541020 -49.797960 20.000000 -143.999996 -71.999996 drawArc stroke
0 1 0 setrgbcolor 58.541020 -80.574800 12.360680 -36.000014 179.999986 drawArc stroke
1 1 0 setrgbcolor
84.721360 0.000000 mv 32.360680 0.000000 ln 42.360680 -30.776840 ln 68.541020 -49.797960 ln closepath stroke
1 0 0 setrgbcolor 84.721360 0.000000 32.360680 180.000000 252.000000 drawArc stroke
0 1 0 setrgbcolor 42.360680 -30.776840 20.000000 -35.999985 108.000015 drawArc stroke
1 1 0 setrgbcolor
84.721360 0.000000 mv 68.541020 49.797960 ln 42.360680 30.776840 ln 32.360680 0.000000 ln closepath stroke
1 0 0 setrgbcolor 84.721360 0.000000 32.360680 108.000002 180.000002 drawArc stroke
0 1 0 setrgbcolor 42.360680 30.776840 20.000000 -107.999997 36.000003 drawArc stroke
1 1 0 setrgbcolor
10.000000 30.776840 mv -16.180340 49.797960 ln 0.000000 0.000000 ln 42.360680 30.776840 ln closepath stroke
1 0 0 setrgbcolor 0.000000 0.000000 20.000000 36.000004 108.000004 drawArc stroke
0 1 0 setrgbcolor 10.000000 30.776840 12.360680 144.000015 0.000015 drawArc stroke
1 1 0 setrgbcolor
-68.541020 -49.797960 mv -26.180340 -80.574800 ln -16.180340 -49.797960 ln -26.180340 -19.021140 ln closepath stroke
1 0 0 setrgbcolor -68.541020 -49.797960 32.360680 -36.000004 35.999996 drawArc stroke
0 1 0 setrgbcolor -16.180340 -49.797960 20.000000 108.000008 252.000008 drawArc stroke
1 1 0 setrgbcolor
-26.180340 19.021140 mv -52.360680 0.000000 ln 0.000000 0.000000 ln -16.180340 49.797960 ln closepath stroke
1 0 0 setrgbcolor 0.000000 0.000000 20.000000 108.000002 180.000002 drawArc stroke
0 1 0 setrgbcolor -26.180340 19.021140 12.360680 -143.999986 72.000014 drawArc stroke
1 1 0 setrgbcolor
-68.541020 -49.797960 mv -26.180340 -19.021140 ln -52.360680 0.000000 ln -84.721360 0.000000 ln closepath stroke
1 0 0 setrgbcolor -68.541020 -49.797960 32.360680 35.999986 107.999986 drawArc stroke
0 1 0 setrgbcolor -52.360680 0.000000 20.000000 180.000000 324.000000 drawArc stroke
1 1 0 setrgbcolor
0.000000 -99.595940 mv 26.180340 -80.574800 ln -26.180340 -80.574800 ln -10.000000 -130.372760 ln closepath stroke
1 0 0 setrgbcolor -26.180340 -80.574800 20.000000 -71.999998 0.000002 drawArc stroke
0 1 0 setrgbcolor 0.000000 -99.595940 12.360680 36.000014 252.000014 drawArc stroke
1 1 0 setrgbcolor
42.360680 -130.372760 mv 94.721360 -130.372760 ln 84.721360 -99.595940 ln 58.541020 -80.574800 ln closepath stroke
1 0 0 setrgbcolor 42.360680 -130.372760 32.360680 0.000000 72.000000 drawArc stroke
0 1 0 setrgbcolor 84.721360 -99.595940 20.000000 143.999986 287.999986 drawArc stroke
1 1 0 setrgbcolor
94.721360 -68.819100 mv 120.901700 -49.797960 ln 68.541020 -49.797960 ln 84.721360 -99.595940 ln closepath stroke
1 0 0 setrgbcolor 68.541020 -49.797960 20.000000 -72.000005 -0.000005 drawArc stroke
0 1 0 setrgbcolor 94.721360 -68.819100 12.360680 36.000014 252.000014 drawArc stroke
1 1 0 setrgbcolor
42.360680 -130.372760 mv 58.541020 -80.574800 ln 26.180340 -80.574800 ln 0.000000 -99.595940 ln closepath stroke
1 0 0 setrgbcolor 42.360680 -130.372760 32.360680 71.999998 143.999998 drawArc stroke
0 1 0 setrgbcolor 26.180340 -80.574800 20.000000 -143.999986 0.000014 drawArc stroke
1 1 0 setrgbcolor
94.721360 -30.776840 mv 84.721360 0.000000 ln 68.541020 -49.797960 ln 120.901700 -49.797960 ln closepath stroke
1 0 0 setrgbcolor 68.541020 -49.797960 20.000000 0.000000 72.000000 drawArc stroke
0 1 0 setrgbcolor 94.721360 -30.776840 12.360680 107.999997 323.999997 drawArc stroke
1 1 0 setrgbcolor
94.721360 30.776840 mv 120.901700 49.797960 ln 68.541020 49.797960 ln 84.721360 0.000000 ln closepath stroke
1 0 0 setrgbcolor 68.541020 49.797960 20.000000 -71.999998 0.000002 drawArc stroke
0 1 0 setrgbcolor 94.721360 30.776840 12.360680 35.999985 251.999985 drawArc stroke
1 1 0 setrgbcolor
26.180340 80.574800 mv 10.000000 30.776840 ln 42.360680 30.776840 ln 68.541020 49.797960 ln closepath stroke
1 0 0 setrgbcolor 26.180340 80.574800 32.360680 -108.000002 -36.000002 drawArc stroke
0 1 0 setrgbcolor 42.360680 30.776840 20.000000 35.999985 179.999985 drawArc stroke
1 1 0 setrgbcolor
26.180340 80.574800 mv -26.180340 80.574800 ln -16.180340 49.797960 ln 10.000000 30.776840 ln closepath stroke
1 0 0 setrgbcolor 26.180340 80.574800 32.360680 180.000000 252.000000 drawArc stroke
0 1 0 setrgbcolor -16.180340 49.797960 20.000000 -35.999985 108.000015 drawArc stroke
1 1 0 setrgbcolor
-58.541020 -80.574800 mv -68.541020 -111.351640 ln -26.180340 -80.574800 ln -68.541020 -49.797960 ln closepath stroke
1 0 0 setrgbcolor -26.180340 -80.574800 20.000000 143.999996 215.999996 drawArc stroke
0 1 0 setrgbcolor -58.541020 -80.574800 12.360680 -107.999997 108.000003 drawArc stroke
1 1 0 setrgbcolor
-68.541020 49.797960 mv -84.721360 0.000000 ln -52.360680 0.000000 ln -26.180340 19.021140 ln closepath stroke
1 0 0 setrgbcolor -68.541020 49.797960 32.360680 -108.000002 -36.000002 drawArc stroke
0 1 0 setrgbcolor -52.360680 0.000000 20.000000 36.000014 180.000014 drawArc stroke
1 1 0 setrgbcolor
-68.541020 49.797960 mv -26.180340 19.021140 ln -16.180340 49.797960 ln -26.180340 80.574800 ln closepath stroke
1 0 0 setrgbcolor -68.541020 49.797960 32.360680 -35.999986 36.000014 drawArc stroke
0 1 0 setrgbcolor -16.180340 49.797960 20.000000 107.999997 251.999997 drawArc stroke
1 1 0 setrgbcolor
-94.721360 -30.776840 mv -68.541020 -49.797960 ln -84.721360 0.000000 ln -127.082040 -30.776840 ln closepath stroke
1 0 0 setrgbcolor -84.721360 0.000000 20.000000 -143.999996 -71.999996 drawArc stroke
0 1 0 setrgbcolor -94.721360 -30.776840 12.360680 -35.999985 180.000015 drawArc stroke
1 1 0 setrgbcolor
-36.180340 -111.351640 mv -10.000000 -130.372760 ln -26.180340 -80.574800 ln -68.541020 -111.351640 ln closepath stroke
1 0 0 setrgbcolor -26.180340 -80.574800 20.000000 -143.999996 -71.999996 drawArc stroke
0 1 0 setrgbcolor -36.180340 -111.351640 12.360680 -35.999985 180.000015 drawArc stroke
1 1 0 setrgbcolor
42.360680 -130.372760 mv 0.000000 -99.595940 ln -10.000000 -130.372760 ln 0.000000 -161.149600 ln closepath stroke
1 0 0 setrgbcolor 42.360680 -130.372760 32.360680 144.000014 216.000014 drawArc stroke
0 1 0 setrgbcolor -10.000000 -130.372760 20.000000 -72.000003 71.999997 drawArc stroke
1 1 0 setrgbcolor
137.082040 0.000000 mv 94.721360 30.776840 ln 84.721360 0.000000 ln 94.721360 -30.776840 ln closepath stroke
1 0 0 setrgbcolor 137.082040 0.000000 32.360680 143.999996 215.999996 drawArc stroke
0 1 0 setrgbcolor 84.721360 0.000000 20.000000 -72.000003 71.999997 drawArc stroke
1 1 0 setrgbcolor
137.082040 0.000000 mv 94.721360 -30.776840 ln 120.901700 -49.797960 ln 153.262380 -49.797960 ln closepath stroke
1 0 0 setrgbcolor 137.082040 0.000000 32.360680 -143.999996 -71.999996 drawArc stroke
0 1 0 setrgbcolor 120.901700 -49.797960 20.000000 0.000000 144.000000 drawArc stroke
1 1 0 setrgbcolor
137.082040 0.000000 mv 153.262380 49.797960 ln 120.901700 49.797960 ln 94.721360 30.776840 ln closepath stroke
1 0 0 setrgbcolor 137.082040 0.000000 32.360680 71.999998 143.999998 drawArc stroke
0 1 0 setrgbcolor 120.901700 49.797960 20.000000 -144.000015 -0.000015 drawArc stroke
1 1 0 setrgbcolor
94.721360 68.819100 mv 84.721360 99.595940 ln 68.541020 49.797960 ln 120.901700 49.797960 ln closepath stroke
1 0 0 setrgbcolor 68.541020 49.797960 20.000000 0.000000 72.000000 drawArc stroke
0 1 0 setrgbcolor 94.721360 68.819100 12.360680 107.999997 323.999997 drawArc stroke
1 1 0 setrgbcolor
58.541020 80.574800 mv 26.180340 80.574800 ln 68.541020 49.797960 ln 84.721360 99.595940 ln closepath stroke
1 0 0 setrgbcolor 68.541020 49.797960 20.000000 72.000005 144.000005 drawArc stroke
0 1 0 setrgbcolor 58.541020 80.574800 12.360680 180.000000 36.000000 drawArc stroke
1 1 0 setrgbcolor
0.000000 99.595940 mv -10.000000 130.372760 ln -26.180340 80.574800 ln 26.180340 80.574800 ln closepath stroke
1 0 0 setrgbcolor -26.180340 80.574800 20.000000 0.000000 72.000000 drawArc stroke
0 1 0 setrgbcolor 0.000000 99.595940 12.360680 108.000008 324.000008 drawArc stroke
1 1 0 setrgbcolor
-110.901700 -80.574800 mv -94.721360 -130.372760 ln -68.541020 -111.351640 ln -58.541020 -80.574800 ln closepath stroke
1 0 0 setrgbcolor -110.901700 -80.574800 32.360680 -71.999998 0.000002 drawArc stroke
0 1 0 setrgbcolor -68.541020 -111.351640 20.000000 72.000003 216.000003 drawArc stroke
1 1 0 setrgbcolor
-110.901700 -80.574800 mv -58.541020 -80.574800 ln -68.541020 -49.797960 ln -94.721360 -30.776840 ln closepath stroke
1 0 0 setrgbcolor -110.901700 -80.574800 32.360680 0.000000 72.000000 drawArc stroke
0 1 0 setrgbcolor -68.541020 -49.797960 20.000000 144.000015 288.000015 drawArc stroke
1 1 0 setrgbcolor
-68.541020 49.797960 mv -120.901700 49.797960 ln -110.901700 19.021140 ln -84.721360 0.000000 ln closepath stroke
1 0 0 setrgbcolor -68.541020 49.797960 32.360680 180.000000 252.000000 drawArc stroke
0 1 0 setrgbcolor -110.901700 19.021140 20.000000 -36.000014 107.999986 drawArc stroke
1 1 0 setrgbcolor
-68.541020 49.797960 mv -26.180340 80.574800 ln -52.360680 99.595940 ln -84.721360 99.595940 ln closepath stroke
1 0 0 setrgbcolor -68.541020 49.797960 32.360680 36.000004 108.000004 drawArc stroke
0 1 0 setrgbcolor -52.360680 99.595940 20.000000 180.000000 324.000000 drawArc stroke
1 1 0 setrgbcolor
-127.082040 -30.776840 mv -84.721360 0.000000 ln -110.901700 19.021140 ln -143.262380 19.021140 ln closepath stroke
1 0 0 setrgbcolor -127.082040 -30.776840 32.360680 36.000004 108.000004 drawArc stroke
0 1 0 setrgbcolor -110.901700 19.021140 20.000000 180.000000 324.000000 drawArc stroke
1 1 0 setrgbcolor
-110.901700 -80.574800 mv -94.721360 -30.776840 ln -127.082040 -30.776840 ln -153.262380 -49.797960 ln closepath stroke
1 0 0 setrgbcolor -110.901700 -80.574800 32.360680 71.999998 143.999998 drawArc stroke
0 1 0 setrgbcolor -127.082040 -30.776840 20.000000 -144.000015 -0.000015 drawArc stroke
1 1 0 setrgbcolor
42.360680 130.372760 mv 0.000000 99.595940 ln 26.180340 80.574800 ln 58.541020 80.574800 ln closepath stroke
1 0 0 setrgbcolor 42.360680 130.372760 32.360680 -144.000014 -72.000014 drawArc stroke
0 1 0 setrgbcolor 26.180340 80.574800 20.000000 0.000000 144.000000 drawArc stroke
1 1 0 setrgbcolor
42.360680 130.372760 mv 58.541020 80.574800 ln 84.721360 99.595940 ln 94.721360 130.372760 ln closepath stroke
1 0 0 setrgbcolor 42.360680 130.372760 32.360680 -71.999998 0.000002 drawArc stroke
0 1 0 setrgbcolor 84.721360 99.595940 20.000000 71.999992 215.999992 drawArc stroke
1 1 0 setrgbcolor
42.360680 130.372760 mv 0.000000 161.149600 ln -10.000000 130.372760 ln 0.000000 99.595940 ln closepath stroke
1 0 0 setrgbcolor 42.360680 130.372760 32.360680 143.999996 215.999996 drawArc stroke
0 1 0 setrgbcolor -10.000000 130.372760 20.000000 -71.999992 72.000008 drawArc stroke
1 1 0 setrgbcolor
-10.000000 130.372760 mv -62.360680 130.372760 ln -52.360680 99.595940 ln -26.180340 80.574800 ln closepath stroke
1 0 0 setrgbcolor -10.000000 130.372760 32.360680 180.000000 252.000000 drawArc stroke
0 1 0 setrgbcolor -52.360680 99.595940 20.000000 -36.000014 107.999986 drawArc stroke
1 1 0 setrgbcolor
-68.541020 49.797960 mv -84.721360 99.595940 ln -110.901700 80.574800 ln -120.901700 49.797960 ln closepath stroke
1 0 0 setrgbcolor -68.541020 49.797960 32.360680 107.999995 179.999995 drawArc stroke
0 1 0 setrgbcolor -110.901700 80.574800 20.000000 -107.999997 36.000003 drawArc stroke
