%!PS

/sc 2 def
/r 50 sc mul def
/c 115 sc mul def

0 0 moveto
1000 0 lineto
1000 1000 lineto
0 1000 lineto
0 setgray fill

%1 1 0 setrgbcolor
%0 1 14 {
%    /y exch def
%    0 1 10 {
%        /x exch def
%        c 3 sqrt mul x y 2 mod 2 div add mul
%        c 2 div y mul
%        r 0 360 arc
%        stroke
%    } for
%} for

0 1 1 setrgbcolor
/dx c 3 sqrt div def
0 1 14 {
    /y exch def
    0 1 10 {
        /x exch def
        c 3 sqrt mul x 1 sub y 2 mod 2 div add mul dx add
        c 2 div y mul
        r 0 360 arc
        stroke
    } for
} for

1 0 1 setrgbcolor
/dx c 3 sqrt div 2 mul def
0 1 14 {
    /y exch def
    0 1 10 {
        /x exch def
        c 3 sqrt mul x 1 sub y 2 mod 2 div add mul dx add
        c 2 div y mul
        r 0 360 arc
        stroke
    } for
} for

1 setgray
c 3 sqrt mul 1 mul c 1 div 2 mul moveto
c 3 sqrt mul 1 mul c 2 div 1 mul lineto
stroke
